<?xml version="1.0" encoding="utf-8"?>
<COLLADA xmlns="http://www.collada.org/2005/11/COLLADASchema" version="1.4.1">
  <asset>
    <contributor>
      <author>Blender User</author>
      <authoring_tool>Blender 2.79.0</authoring_tool>
    </contributor>
    <created>2018-05-07T18:32:23</created>
    <modified>2018-05-07T18:32:23</modified>
    <unit name="meter" meter="1"/>
    <up_axis>Z_UP</up_axis>
  </asset>
  <library_cameras>
    <camera id="Camera-camera" name="Camera">
      <optics>
        <technique_common>
          <perspective>
            <xfov sid="xfov">49.13434</xfov>
            <aspect_ratio>1.777778</aspect_ratio>
            <znear sid="znear">0.1</znear>
            <zfar sid="zfar">100</zfar>
          </perspective>
        </technique_common>
      </optics>
      <extra>
        <technique profile="blender">
          <YF_dofdist>0</YF_dofdist>
          <shiftx>0</shiftx>
          <shifty>0</shifty>
        </technique>
      </extra>
    </camera>
    <camera id="Camera_001-camera" name="Camera.002">
      <optics>
        <technique_common>
          <perspective>
            <xfov sid="xfov">49.13434</xfov>
            <aspect_ratio>1.777778</aspect_ratio>
            <znear sid="znear">0.1</znear>
            <zfar sid="zfar">100</zfar>
          </perspective>
        </technique_common>
      </optics>
      <extra>
        <technique profile="blender">
          <YF_dofdist>0</YF_dofdist>
          <shiftx>0</shiftx>
          <shifty>0</shifty>
        </technique>
      </extra>
    </camera>
    <camera id="Camera_002-camera" name="Camera.003">
      <optics>
        <technique_common>
          <perspective>
            <xfov sid="xfov">49.13434</xfov>
            <aspect_ratio>1.777778</aspect_ratio>
            <znear sid="znear">0.1</znear>
            <zfar sid="zfar">100</zfar>
          </perspective>
        </technique_common>
      </optics>
      <extra>
        <technique profile="blender">
          <YF_dofdist>0</YF_dofdist>
          <shiftx>0</shiftx>
          <shifty>0</shifty>
        </technique>
      </extra>
    </camera>
    <camera id="Camera_003-camera" name="Camera.004">
      <optics>
        <technique_common>
          <perspective>
            <xfov sid="xfov">49.13434</xfov>
            <aspect_ratio>1.777778</aspect_ratio>
            <znear sid="znear">0.1</znear>
            <zfar sid="zfar">100</zfar>
          </perspective>
        </technique_common>
      </optics>
      <extra>
        <technique profile="blender">
          <YF_dofdist>0</YF_dofdist>
          <shiftx>0</shiftx>
          <shifty>0</shifty>
        </technique>
      </extra>
    </camera>
    <camera id="skp_camera_Last_Saved_SketchUp_View-camera" name="skp_camera_Last_Saved_SketchUp_View.005">
      <optics>
        <technique_common>
          <perspective>
            <xfov sid="xfov">0</xfov>
            <aspect_ratio>1.777778</aspect_ratio>
            <znear sid="znear">1</znear>
            <zfar sid="zfar">1000</zfar>
          </perspective>
        </technique_common>
      </optics>
      <extra>
        <technique profile="blender">
          <YF_dofdist>0</YF_dofdist>
          <shiftx>0</shiftx>
          <shifty>0</shifty>
        </technique>
      </extra>
    </camera>
  </library_cameras>
  <library_lights>
    <light id="Lamp-light" name="Lamp">
      <technique_common>
        <point>
          <color sid="color">1 1 1</color>
          <constant_attenuation>1</constant_attenuation>
          <linear_attenuation>0</linear_attenuation>
          <quadratic_attenuation>0.00111109</quadratic_attenuation>
        </point>
      </technique_common>
      <extra>
        <technique profile="blender">
          <adapt_thresh>0.000999987</adapt_thresh>
          <area_shape>1</area_shape>
          <area_size>0.1</area_size>
          <area_sizey>0.1</area_sizey>
          <area_sizez>1</area_sizez>
          <atm_distance_factor>1</atm_distance_factor>
          <atm_extinction_factor>1</atm_extinction_factor>
          <atm_turbidity>2</atm_turbidity>
          <att1>0</att1>
          <att2>1</att2>
          <backscattered_light>1</backscattered_light>
          <bias>1</bias>
          <blue>1</blue>
          <buffers>1</buffers>
          <bufflag>0</bufflag>
          <bufsize>2880</bufsize>
          <buftype>2</buftype>
          <clipend>30.002</clipend>
          <clipsta>1.000799</clipsta>
          <compressthresh>0.04999995</compressthresh>
          <dist sid="blender_dist">29.99998</dist>
          <energy sid="blender_energy">1</energy>
          <falloff_type>2</falloff_type>
          <filtertype>0</filtertype>
          <flag>0</flag>
          <gamma sid="blender_gamma">1</gamma>
          <green>1</green>
          <halo_intensity sid="blnder_halo_intensity">1</halo_intensity>
          <horizon_brightness>1</horizon_brightness>
          <mode>8192</mode>
          <ray_samp>1</ray_samp>
          <ray_samp_method>1</ray_samp_method>
          <ray_samp_type>0</ray_samp_type>
          <ray_sampy>1</ray_sampy>
          <ray_sampz>1</ray_sampz>
          <red>1</red>
          <samp>3</samp>
          <shadhalostep>0</shadhalostep>
          <shadow_b sid="blender_shadow_b">0</shadow_b>
          <shadow_g sid="blender_shadow_g">0</shadow_g>
          <shadow_r sid="blender_shadow_r">0</shadow_r>
          <sky_colorspace>0</sky_colorspace>
          <sky_exposure>1</sky_exposure>
          <skyblendfac>1</skyblendfac>
          <skyblendtype>1</skyblendtype>
          <soft>3</soft>
          <spotblend>0.15</spotblend>
          <spotsize>75</spotsize>
          <spread>1</spread>
          <sun_brightness>1</sun_brightness>
          <sun_effect_type>0</sun_effect_type>
          <sun_intensity>1</sun_intensity>
          <sun_size>1</sun_size>
          <type>0</type>
        </technique>
      </extra>
    </light>
    <light id="Lamp_001-light" name="Lamp.002">
      <technique_common>
        <point>
          <color sid="color">1 1 1</color>
          <constant_attenuation>1</constant_attenuation>
          <linear_attenuation>0</linear_attenuation>
          <quadratic_attenuation>0.00111109</quadratic_attenuation>
        </point>
      </technique_common>
      <extra>
        <technique profile="blender">
          <adapt_thresh>9.99987e-4</adapt_thresh>
          <area_shape>1</area_shape>
          <area_size>0.1</area_size>
          <area_sizey>0.1</area_sizey>
          <area_sizez>1</area_sizez>
          <atm_distance_factor>1</atm_distance_factor>
          <atm_extinction_factor>1</atm_extinction_factor>
          <atm_turbidity>2</atm_turbidity>
          <att1>0</att1>
          <att2>1</att2>
          <backscattered_light>1</backscattered_light>
          <bias>1</bias>
          <blue>1</blue>
          <buffers>1</buffers>
          <bufflag>0</bufflag>
          <bufsize>2880</bufsize>
          <buftype>2</buftype>
          <clipend>30.002</clipend>
          <clipsta>1.000799</clipsta>
          <compressthresh>0.04999995</compressthresh>
          <dist sid="blender_dist">29.99998</dist>
          <energy sid="blender_energy">1</energy>
          <falloff_type>2</falloff_type>
          <filtertype>0</filtertype>
          <flag>0</flag>
          <gamma sid="blender_gamma">1</gamma>
          <green>1</green>
          <halo_intensity sid="blnder_halo_intensity">1</halo_intensity>
          <horizon_brightness>1</horizon_brightness>
          <mode>8192</mode>
          <ray_samp>1</ray_samp>
          <ray_samp_method>1</ray_samp_method>
          <ray_samp_type>0</ray_samp_type>
          <ray_sampy>1</ray_sampy>
          <ray_sampz>1</ray_sampz>
          <red>1</red>
          <samp>3</samp>
          <shadhalostep>0</shadhalostep>
          <shadow_b sid="blender_shadow_b">0</shadow_b>
          <shadow_g sid="blender_shadow_g">0</shadow_g>
          <shadow_r sid="blender_shadow_r">0</shadow_r>
          <sky_colorspace>0</sky_colorspace>
          <sky_exposure>1</sky_exposure>
          <skyblendfac>1</skyblendfac>
          <skyblendtype>1</skyblendtype>
          <soft>3</soft>
          <spotblend>0.15</spotblend>
          <spotsize>75</spotsize>
          <spread>1</spread>
          <sun_brightness>1</sun_brightness>
          <sun_effect_type>0</sun_effect_type>
          <sun_intensity>1</sun_intensity>
          <sun_size>1</sun_size>
          <type>0</type>
        </technique>
      </extra>
    </light>
    <light id="Lamp_002-light" name="Lamp.003">
      <technique_common>
        <point>
          <color sid="color">1 1 1</color>
          <constant_attenuation>1</constant_attenuation>
          <linear_attenuation>0</linear_attenuation>
          <quadratic_attenuation>0.00111109</quadratic_attenuation>
        </point>
      </technique_common>
      <extra>
        <technique profile="blender">
          <adapt_thresh>9.99987e-4</adapt_thresh>
          <area_shape>1</area_shape>
          <area_size>0.1</area_size>
          <area_sizey>0.1</area_sizey>
          <area_sizez>1</area_sizez>
          <atm_distance_factor>1</atm_distance_factor>
          <atm_extinction_factor>1</atm_extinction_factor>
          <atm_turbidity>2</atm_turbidity>
          <att1>0</att1>
          <att2>1</att2>
          <backscattered_light>1</backscattered_light>
          <bias>1</bias>
          <blue>1</blue>
          <buffers>1</buffers>
          <bufflag>0</bufflag>
          <bufsize>2880</bufsize>
          <buftype>2</buftype>
          <clipend>30.002</clipend>
          <clipsta>1.000799</clipsta>
          <compressthresh>0.04999995</compressthresh>
          <dist sid="blender_dist">29.99998</dist>
          <energy sid="blender_energy">1</energy>
          <falloff_type>2</falloff_type>
          <filtertype>0</filtertype>
          <flag>0</flag>
          <gamma sid="blender_gamma">1</gamma>
          <green>1</green>
          <halo_intensity sid="blnder_halo_intensity">1</halo_intensity>
          <horizon_brightness>1</horizon_brightness>
          <mode>8192</mode>
          <ray_samp>1</ray_samp>
          <ray_samp_method>1</ray_samp_method>
          <ray_samp_type>0</ray_samp_type>
          <ray_sampy>1</ray_sampy>
          <ray_sampz>1</ray_sampz>
          <red>1</red>
          <samp>3</samp>
          <shadhalostep>0</shadhalostep>
          <shadow_b sid="blender_shadow_b">0</shadow_b>
          <shadow_g sid="blender_shadow_g">0</shadow_g>
          <shadow_r sid="blender_shadow_r">0</shadow_r>
          <sky_colorspace>0</sky_colorspace>
          <sky_exposure>1</sky_exposure>
          <skyblendfac>1</skyblendfac>
          <skyblendtype>1</skyblendtype>
          <soft>3</soft>
          <spotblend>0.15</spotblend>
          <spotsize>75</spotsize>
          <spread>1</spread>
          <sun_brightness>1</sun_brightness>
          <sun_effect_type>0</sun_effect_type>
          <sun_intensity>1</sun_intensity>
          <sun_size>1</sun_size>
          <type>0</type>
        </technique>
      </extra>
    </light>
    <light id="Lamp_003-light" name="Lamp.004">
      <technique_common>
        <point>
          <color sid="color">1 1 1</color>
          <constant_attenuation>1</constant_attenuation>
          <linear_attenuation>0</linear_attenuation>
          <quadratic_attenuation>0.00111109</quadratic_attenuation>
        </point>
      </technique_common>
      <extra>
        <technique profile="blender">
          <adapt_thresh>9.99987e-4</adapt_thresh>
          <area_shape>1</area_shape>
          <area_size>0.1</area_size>
          <area_sizey>0.1</area_sizey>
          <area_sizez>1</area_sizez>
          <atm_distance_factor>1</atm_distance_factor>
          <atm_extinction_factor>1</atm_extinction_factor>
          <atm_turbidity>2</atm_turbidity>
          <att1>0</att1>
          <att2>1</att2>
          <backscattered_light>1</backscattered_light>
          <bias>1</bias>
          <blue>1</blue>
          <buffers>1</buffers>
          <bufflag>0</bufflag>
          <bufsize>2880</bufsize>
          <buftype>2</buftype>
          <clipend>30.002</clipend>
          <clipsta>1.000799</clipsta>
          <compressthresh>0.04999995</compressthresh>
          <dist sid="blender_dist">29.99998</dist>
          <energy sid="blender_energy">1</energy>
          <falloff_type>2</falloff_type>
          <filtertype>0</filtertype>
          <flag>0</flag>
          <gamma sid="blender_gamma">1</gamma>
          <green>1</green>
          <halo_intensity sid="blnder_halo_intensity">1</halo_intensity>
          <horizon_brightness>1</horizon_brightness>
          <mode>8192</mode>
          <ray_samp>1</ray_samp>
          <ray_samp_method>1</ray_samp_method>
          <ray_samp_type>0</ray_samp_type>
          <ray_sampy>1</ray_sampy>
          <ray_sampz>1</ray_sampz>
          <red>1</red>
          <samp>3</samp>
          <shadhalostep>0</shadhalostep>
          <shadow_b sid="blender_shadow_b">0</shadow_b>
          <shadow_g sid="blender_shadow_g">0</shadow_g>
          <shadow_r sid="blender_shadow_r">0</shadow_r>
          <sky_colorspace>0</sky_colorspace>
          <sky_exposure>1</sky_exposure>
          <skyblendfac>1</skyblendfac>
          <skyblendtype>1</skyblendtype>
          <soft>3</soft>
          <spotblend>0.15</spotblend>
          <spotsize>75</spotsize>
          <spread>1</spread>
          <sun_brightness>1</sun_brightness>
          <sun_effect_type>0</sun_effect_type>
          <sun_intensity>1</sun_intensity>
          <sun_size>1</sun_size>
          <type>0</type>
        </technique>
      </extra>
    </light>
  </library_lights>
  <library_images>
    <image id="Wood_Cherry_Original_JPG" name="Wood_Cherry_Original_JPG">
      <init_from>Wood_Cherry_Original.JPG</init_from>
    </image>
    <image id="Metal_Corrugated_Shiny_jpg" name="Metal_Corrugated_Shiny_jpg">
      <init_from>Metal_Corrugated_Shiny.jpg</init_from>
    </image>
  </library_images>
  <library_effects>
    <effect id="Wood_Cherry_Original-effect">
      <profile_COMMON>
        <newparam sid="Wood_Cherry_Original_JPG-surface">
          <surface type="2D">
            <init_from>Wood_Cherry_Original_JPG</init_from>
          </surface>
        </newparam>
        <newparam sid="Wood_Cherry_Original_JPG-sampler">
          <sampler2D>
            <source>Wood_Cherry_Original_JPG-surface</source>
          </sampler2D>
        </newparam>
        <technique sid="common">
          <phong>
            <emission>
              <color sid="emission">0 0 0 1</color>
            </emission>
            <ambient>
              <color sid="ambient">0.7 0.7 0.7 1</color>
            </ambient>
            <diffuse>
              <texture texture="Wood_Cherry_Original_JPG-sampler"/>
            </diffuse>
            <specular>
              <color sid="specular">0.5 0.5 0.5 1</color>
            </specular>
            <shininess>
              <float sid="shininess">50</float>
            </shininess>
            <index_of_refraction>
              <float sid="index_of_refraction">1</float>
            </index_of_refraction>
          </phong>
        </technique>
      </profile_COMMON>
    </effect>
    <effect id="material_001-effect">
      <profile_COMMON>
        <technique sid="common">
          <phong>
            <emission>
              <color sid="emission">0 0 0 1</color>
            </emission>
            <ambient>
              <color sid="ambient">0.7 0.7 0.7 1</color>
            </ambient>
            <diffuse>
              <color sid="diffuse">1 1 1 1</color>
            </diffuse>
            <specular>
              <color sid="specular">0.5 0.5 0.5 1</color>
            </specular>
            <shininess>
              <float sid="shininess">50</float>
            </shininess>
            <index_of_refraction>
              <float sid="index_of_refraction">1</float>
            </index_of_refraction>
          </phong>
        </technique>
      </profile_COMMON>
    </effect>
    <effect id="Metal_Corrugated_Shiny-effect">
      <profile_COMMON>
        <newparam sid="Metal_Corrugated_Shiny_jpg-surface">
          <surface type="2D">
            <init_from>Metal_Corrugated_Shiny_jpg</init_from>
          </surface>
        </newparam>
        <newparam sid="Metal_Corrugated_Shiny_jpg-sampler">
          <sampler2D>
            <source>Metal_Corrugated_Shiny_jpg-surface</source>
          </sampler2D>
        </newparam>
        <technique sid="common">
          <phong>
            <emission>
              <color sid="emission">0 0 0 1</color>
            </emission>
            <ambient>
              <color sid="ambient">0.7 0.7 0.7 1</color>
            </ambient>
            <diffuse>
              <texture texture="Metal_Corrugated_Shiny_jpg-sampler"/>
            </diffuse>
            <specular>
              <color sid="specular">0.5 0.5 0.5 1</color>
            </specular>
            <shininess>
              <float sid="shininess">50</float>
            </shininess>
            <index_of_refraction>
              <float sid="index_of_refraction">1</float>
            </index_of_refraction>
          </phong>
        </technique>
      </profile_COMMON>
    </effect>
  </library_effects>
  <library_materials>
    <material id="Wood_Cherry_Original-material" name="Wood_Cherry_Original">
      <instance_effect url="#Wood_Cherry_Original-effect"/>
    </material>
    <material id="material_001-material" name="material_001">
      <instance_effect url="#material_001-effect"/>
    </material>
    <material id="Metal_Corrugated_Shiny-material" name="Metal_Corrugated_Shiny">
      <instance_effect url="#Metal_Corrugated_Shiny-effect"/>
    </material>
  </library_materials>
  <library_geometries>
    <geometry id="ID5-mesh" name="ID5">
      <mesh>
        <source id="ID5-mesh-positions">
          <float_array id="ID5-mesh-positions-array" count="60">5.905512 5.905512 0 5.905512 0 38.38583 5.905512 0 0 5.905512 5.905512 38.38583 0 5.905512 38.38583 5.905512 5.905512 0 0 5.905512 0 5.905512 5.905512 38.38583 5.905512 0 38.38583 0 0 0 5.905512 0 0 0 0 38.38583 5.905512 5.905512 0 0 0 0 0 5.905512 0 5.905512 0 0 0 5.905512 38.38583 0 0 0 0 0 38.38583 0 5.905512 0</float_array>
          <technique_common>
            <accessor source="#ID5-mesh-positions-array" count="20" stride="3">
              <param name="X" type="float"/>
              <param name="Y" type="float"/>
              <param name="Z" type="float"/>
            </accessor>
          </technique_common>
        </source>
        <source id="ID5-mesh-normals">
          <float_array id="ID5-mesh-normals-array" count="15">1 0 0 0 1 0 0 -1 0 0 0 -1 -1 0 0</float_array>
          <technique_common>
            <accessor source="#ID5-mesh-normals-array" count="5" stride="3">
              <param name="X" type="float"/>
              <param name="Y" type="float"/>
              <param name="Z" type="float"/>
            </accessor>
          </technique_common>
        </source>
        <source id="ID5-mesh-map-0">
          <float_array id="ID5-mesh-map-0-array" count="60">1 0 0 0.8125 0 0 0 0.8125 1 0 1 0.8125 0 0.8125 -1 0 0 0 -1 0 0 0.8125 -1 0.8125 1 0.8125 0 0 1 0 0 0 1 0.8125 0 0.8125 -1 0.125 0 0 0 0.125 0 0 -1 0.125 -1 0 -1 0.8125 0 0 0 0.8125 0 0 -1 0.8125 -1 0</float_array>
          <technique_common>
            <accessor source="#ID5-mesh-map-0-array" count="30" stride="2">
              <param name="S" type="float"/>
              <param name="T" type="float"/>
            </accessor>
          </technique_common>
        </source>
        <vertices id="ID5-mesh-vertices">
          <input semantic="POSITION" source="#ID5-mesh-positions"/>
        </vertices>
        <triangles material="Wood_Cherry_Original-material" count="10">
          <input semantic="VERTEX" source="#ID5-mesh-vertices" offset="0"/>
          <input semantic="NORMAL" source="#ID5-mesh-normals" offset="1"/>
          <input semantic="TEXCOORD" source="#ID5-mesh-map-0" offset="2" set="0"/>
          <p>0 0 0 1 0 1 2 0 2 1 0 3 0 0 4 3 0 5 4 1 6 5 1 7 6 1 8 5 1 9 4 1 10 7 1 11 8 2 12 9 2 13 10 2 14 9 2 15 8 2 16 11 2 17 12 3 18 13 3 19 14 3 20 13 3 21 12 3 22 15 3 23 16 4 24 17 4 25 18 4 26 17 4 27 16 4 28 19 4 29</p>
        </triangles>
      </mesh>
    </geometry>
    <geometry id="ID18_003-mesh" name="ID18.003">
      <mesh>
        <source id="ID18_003-mesh-positions">
          <float_array id="ID18_003-mesh-positions-array" count="144">5.905512 0 45.27559 0 0 45.27559 2.952756 2.952756 47.24409 2.952756 2.952756 47.24409 0 0 45.27559 5.905512 0 45.27559 2.952756 2.952756 47.24409 0 0 45.27559 0 5.905512 45.27559 0 5.905512 45.27559 0 0 45.27559 2.952756 2.952756 47.24409 5.905512 0 45.27559 2.952756 2.952756 47.24409 5.905512 5.905512 45.27559 5.905512 5.905512 45.27559 2.952756 2.952756 47.24409 5.905512 0 45.27559 5.905512 0 45.27559 0 0 39.37008 5.905512 0 39.37008 0 0 45.27559 5.905512 5.905512 45.27559 2.952756 2.952756 47.24409 0 5.905512 45.27559 0 5.905512 45.27559 2.952756 2.952756 47.24409 5.905512 5.905512 45.27559 0 5.905512 45.27559 0 0 39.37008 0 0 45.27559 0 5.905512 39.37008 5.905512 5.905512 39.37008 5.905512 0 45.27559 5.905512 0 39.37008 5.905512 5.905512 45.27559 0 5.905512 39.37008 0.1181102 5.787402 39.37008 0 0 39.37008 5.905512 5.905512 39.37008 5.787402 5.787402 39.37008 5.787402 0.1181102 39.37008 0.1181102 0.1181102 39.37008 5.905512 0 39.37008 0 5.905512 45.27559 5.905512 5.905512 39.37008 0 5.905512 39.37008 5.905512 5.905512 45.27559</float_array>
          <technique_common>
            <accessor source="#ID18_003-mesh-positions-array" count="48" stride="3">
              <param name="X" type="float"/>
              <param name="Y" type="float"/>
              <param name="Z" type="float"/>
            </accessor>
          </technique_common>
        </source>
        <source id="ID18_003-mesh-normals">
          <float_array id="ID18_003-mesh-normals-array" count="39">0 0.5546999 -0.8320506 0.5547014 0 -0.8320495 -0.5547014 0 -0.8320495 0 -0.5547 -0.8320505 0 -0.5546999 0.8320506 -0.5547014 0 0.8320495 0.5547014 0 0.8320495 0 -1 0 0 0.5547 0.8320505 -1 0 0 1 0 0 0 0 -1 0 1 0</float_array>
          <technique_common>
            <accessor source="#ID18_003-mesh-normals-array" count="13" stride="3">
              <param name="X" type="float"/>
              <param name="Y" type="float"/>
              <param name="Z" type="float"/>
            </accessor>
          </technique_common>
        </source>
        <source id="ID18_003-mesh-map-0">
          <float_array id="ID18_003-mesh-map-0-array" count="144">0 0 0 0 0 0 0 0 0 0 0 0 0 0 0 0 0 0 0 0 0 0 0 0 -0.5 0.6067033 0 0.5315877 -1 0.5315877 1 0.5315877 0 0.5315877 0.5 0.6067033 -1 0.4275814 -0.5 0.5026971 0 0.4275814 1 0.9583333 0 0.8333333 1 0.8333333 0 0.8333333 1 0.9583333 0 0.9583333 0 0.4275814 0.5 0.5026971 1 0.4275814 -1 0.9583333 0 0.8333333 0 0.9583333 0 0.8333333 -1 0.9583333 -1 0.8333333 1 0.8333333 0 0.9583333 0 0.8333333 0 0.9583333 1 0.8333333 1 0.9583333 0 0.125 -0.01999998 0.1225 0 0 -0.01999998 0.1225 0 0.125 -1 0.125 -0.01999998 0.1225 -1 0.125 -0.98 0.1225 -0.98 0.1225 -1 0.125 -0.98 0.002499997 0 0 -0.01999998 0.002499997 -1 0 -0.01999998 0.002499997 0 0 -0.01999998 0.1225 -1 0 -0.01999998 0.002499997 -0.98 0.002499997 -1 0 -0.98 0.002499997 -1 0.125 0 0.9583333 -1 0.8333333 0 0.8333333 -1 0.8333333 0 0.9583333 -1 0.9583333</float_array>
          <technique_common>
            <accessor source="#ID18_003-mesh-map-0-array" count="72" stride="2">
              <param name="S" type="float"/>
              <param name="T" type="float"/>
            </accessor>
          </technique_common>
        </source>
        <vertices id="ID18_003-mesh-vertices">
          <input semantic="POSITION" source="#ID18_003-mesh-positions"/>
        </vertices>
        <triangles material="Wood_Cherry_Original-material" count="20">
          <input semantic="VERTEX" source="#ID18_003-mesh-vertices" offset="0"/>
          <input semantic="NORMAL" source="#ID18_003-mesh-normals" offset="1"/>
          <input semantic="TEXCOORD" source="#ID18_003-mesh-map-0" offset="2" set="0"/>
          <p>3 4 12 4 4 13 5 4 14 9 5 15 10 5 16 11 5 17 15 6 18 16 6 19 17 6 20 18 7 21 19 7 22 20 7 23 19 7 24 18 7 25 21 7 26 25 8 27 26 8 28 27 8 29 28 9 30 29 9 31 30 9 32 29 9 33 28 9 34 31 9 35 32 10 36 33 10 37 34 10 38 33 10 39 32 10 40 35 10 41 36 11 42 37 11 43 38 11 44 37 11 45 36 11 46 39 11 47 37 11 48 39 11 49 40 11 50 40 11 51 39 11 52 41 11 53 38 11 54 42 11 55 43 11 56 42 11 57 38 11 58 37 11 59 43 11 60 42 11 61 41 11 62 43 11 63 41 11 64 39 11 65 44 12 66 45 12 67 46 12 68 45 12 69 44 12 70 47 12 71</p>
        </triangles>
        <triangles material="material_001-material" count="4">
          <input semantic="VERTEX" source="#ID18_003-mesh-vertices" offset="0"/>
          <input semantic="NORMAL" source="#ID18_003-mesh-normals" offset="1"/>
          <input semantic="TEXCOORD" source="#ID18_003-mesh-map-0" offset="2" set="0"/>
          <p>0 0 0 1 0 1 2 0 2 6 1 3 7 1 4 8 1 5 12 2 6 13 2 7 14 2 8 22 3 9 23 3 10 24 3 11</p>
        </triangles>
      </mesh>
    </geometry>
    <geometry id="ID28-mesh" name="ID28">
      <mesh>
        <source id="ID28-mesh-positions">
          <float_array id="ID28-mesh-positions-array" count="12">5.905512 0 45.27559 0 5.905512 45.27559 0 0 45.27559 5.905512 5.905512 45.27559</float_array>
          <technique_common>
            <accessor source="#ID28-mesh-positions-array" count="4" stride="3">
              <param name="X" type="float"/>
              <param name="Y" type="float"/>
              <param name="Z" type="float"/>
            </accessor>
          </technique_common>
        </source>
        <source id="ID28-mesh-normals">
          <float_array id="ID28-mesh-normals-array" count="3">0 0 1</float_array>
          <technique_common>
            <accessor source="#ID28-mesh-normals-array" count="1" stride="3">
              <param name="X" type="float"/>
              <param name="Y" type="float"/>
              <param name="Z" type="float"/>
            </accessor>
          </technique_common>
        </source>
        <vertices id="ID28-mesh-vertices">
          <input semantic="POSITION" source="#ID28-mesh-positions"/>
        </vertices>
        <triangles material="material_001-material" count="2">
          <input semantic="VERTEX" source="#ID28-mesh-vertices" offset="0"/>
          <input semantic="NORMAL" source="#ID28-mesh-normals" offset="1"/>
          <p>0 0 1 0 2 0 1 0 0 0 3 0</p>
        </triangles>
      </mesh>
    </geometry>
    <geometry id="ID34_003-mesh" name="ID34.003">
      <mesh>
        <source id="ID34_003-mesh-positions">
          <float_array id="ID34_003-mesh-positions-array" count="12">5.787402 5.787402 38.38583 0.1181102 0.1181102 38.38583 0.1181102 5.787402 38.38583 5.787402 0.1181102 38.38583</float_array>
          <technique_common>
            <accessor source="#ID34_003-mesh-positions-array" count="4" stride="3">
              <param name="X" type="float"/>
              <param name="Y" type="float"/>
              <param name="Z" type="float"/>
            </accessor>
          </technique_common>
        </source>
        <source id="ID34_003-mesh-normals">
          <float_array id="ID34_003-mesh-normals-array" count="3">0 0 -1</float_array>
          <technique_common>
            <accessor source="#ID34_003-mesh-normals-array" count="1" stride="3">
              <param name="X" type="float"/>
              <param name="Y" type="float"/>
              <param name="Z" type="float"/>
            </accessor>
          </technique_common>
        </source>
        <vertices id="ID34_003-mesh-vertices">
          <input semantic="POSITION" source="#ID34_003-mesh-positions"/>
        </vertices>
        <triangles material="material_001-material" count="2">
          <input semantic="VERTEX" source="#ID34_003-mesh-vertices" offset="0"/>
          <input semantic="NORMAL" source="#ID34_003-mesh-normals" offset="1"/>
          <p>0 0 1 0 2 0 1 0 0 0 3 0</p>
        </triangles>
      </mesh>
    </geometry>
    <geometry id="ID40_003-mesh" name="ID40.003">
      <mesh>
        <source id="ID40_003-mesh-positions">
          <float_array id="ID40_003-mesh-positions-array" count="12">5.787402 5.787402 39.37008 0.1181102 0.1181102 39.37008 0.1181102 5.787402 39.37008 5.787402 0.1181102 39.37008</float_array>
          <technique_common>
            <accessor source="#ID40_003-mesh-positions-array" count="4" stride="3">
              <param name="X" type="float"/>
              <param name="Y" type="float"/>
              <param name="Z" type="float"/>
            </accessor>
          </technique_common>
        </source>
        <source id="ID40_003-mesh-normals">
          <float_array id="ID40_003-mesh-normals-array" count="3">0 0 -1</float_array>
          <technique_common>
            <accessor source="#ID40_003-mesh-normals-array" count="1" stride="3">
              <param name="X" type="float"/>
              <param name="Y" type="float"/>
              <param name="Z" type="float"/>
            </accessor>
          </technique_common>
        </source>
        <vertices id="ID40_003-mesh-vertices">
          <input semantic="POSITION" source="#ID40_003-mesh-positions"/>
        </vertices>
        <triangles material="material_001-material" count="2">
          <input semantic="VERTEX" source="#ID40_003-mesh-vertices" offset="0"/>
          <input semantic="NORMAL" source="#ID40_003-mesh-normals" offset="1"/>
          <p>0 0 1 0 2 0 1 0 0 0 3 0</p>
        </triangles>
      </mesh>
    </geometry>
    <geometry id="ID46_001-mesh" name="ID46.001">
      <mesh>
        <source id="ID46_001-mesh-positions">
          <float_array id="ID46_001-mesh-positions-array" count="48">0.1181102 5.787402 39.37008 5.787402 5.787402 38.38583 0.1181102 5.787402 38.38583 5.787402 5.787402 39.37008 0.1181102 5.787402 39.37008 0.1181102 0.1181102 38.38583 0.1181102 0.1181102 39.37008 0.1181102 5.787402 38.38583 5.787402 5.787402 38.38583 5.787402 0.1181102 39.37008 5.787402 0.1181102 38.38583 5.787402 5.787402 39.37008 5.787402 0.1181102 39.37008 0.1181102 0.1181102 38.38583 5.787402 0.1181102 38.38583 0.1181102 0.1181102 39.37008</float_array>
          <technique_common>
            <accessor source="#ID46_001-mesh-positions-array" count="16" stride="3">
              <param name="X" type="float"/>
              <param name="Y" type="float"/>
              <param name="Z" type="float"/>
            </accessor>
          </technique_common>
        </source>
        <source id="ID46_001-mesh-normals">
          <float_array id="ID46_001-mesh-normals-array" count="12">0 1 0 -1 0 0 1 0 0 0 -1 0</float_array>
          <technique_common>
            <accessor source="#ID46_001-mesh-normals-array" count="4" stride="3">
              <param name="X" type="float"/>
              <param name="Y" type="float"/>
              <param name="Z" type="float"/>
            </accessor>
          </technique_common>
        </source>
        <source id="ID46_001-mesh-map-0">
          <float_array id="ID46_001-mesh-map-0-array" count="48">-0.01999998 0.8333333 -0.98 0.8125 -0.01999998 0.8125 -0.98 0.8125 -0.01999998 0.8333333 -0.98 0.8333333 -0.98 0.8333333 -0.01999998 0.8125 -0.01999998 0.8333333 -0.01999998 0.8125 -0.98 0.8333333 -0.98 0.8125 0.98 0.8125 0.01999998 0.8333333 0.01999998 0.8125 0.01999998 0.8333333 0.98 0.8125 0.98 0.8333333 0.98 0.8333333 0.01999998 0.8125 0.98 0.8125 0.01999998 0.8125 0.98 0.8333333 0.01999998 0.8333333</float_array>
          <technique_common>
            <accessor source="#ID46_001-mesh-map-0-array" count="24" stride="2">
              <param name="S" type="float"/>
              <param name="T" type="float"/>
            </accessor>
          </technique_common>
        </source>
        <vertices id="ID46_001-mesh-vertices">
          <input semantic="POSITION" source="#ID46_001-mesh-positions"/>
        </vertices>
        <triangles material="Wood_Cherry_Original-material" count="8">
          <input semantic="VERTEX" source="#ID46_001-mesh-vertices" offset="0"/>
          <input semantic="NORMAL" source="#ID46_001-mesh-normals" offset="1"/>
          <input semantic="TEXCOORD" source="#ID46_001-mesh-map-0" offset="2" set="0"/>
          <p>0 0 0 1 0 1 2 0 2 1 0 3 0 0 4 3 0 5 4 1 6 5 1 7 6 1 8 5 1 9 4 1 10 7 1 11 8 2 12 9 2 13 10 2 14 9 2 15 8 2 16 11 2 17 12 3 18 13 3 19 14 3 20 13 3 21 12 3 22 15 3 23</p>
        </triangles>
      </mesh>
    </geometry>
    <geometry id="ID54_001-mesh" name="ID54.001">
      <mesh>
        <source id="ID54_001-mesh-positions">
          <float_array id="ID54_001-mesh-positions-array" count="48">0 5.905512 38.38583 0.1181102 5.787402 38.38583 0 0 38.38583 5.905512 5.905512 38.38583 5.787402 5.787402 38.38583 5.787402 0.1181102 38.38583 0.1181102 0.1181102 38.38583 5.905512 0 38.38583 5.905512 5.905512 38.38583 5.787402 0.1181102 38.38583 5.905512 0 38.38583 0.1181102 0.1181102 38.38583 0.1181102 5.787402 38.38583 0 0 38.38583 5.787402 5.787402 38.38583 0 5.905512 38.38583</float_array>
          <technique_common>
            <accessor source="#ID54_001-mesh-positions-array" count="16" stride="3">
              <param name="X" type="float"/>
              <param name="Y" type="float"/>
              <param name="Z" type="float"/>
            </accessor>
          </technique_common>
        </source>
        <source id="ID54_001-mesh-normals">
          <float_array id="ID54_001-mesh-normals-array" count="18">0 0 -1 1.64073e-5 0 1 0 0 1 -1.70909e-5 0 1 5.69699e-6 0 1 -5.46909e-6 0 1</float_array>
          <technique_common>
            <accessor source="#ID54_001-mesh-normals-array" count="6" stride="3">
              <param name="X" type="float"/>
              <param name="Y" type="float"/>
              <param name="Z" type="float"/>
            </accessor>
          </technique_common>
        </source>
        <source id="ID54_001-mesh-map-0">
          <float_array id="ID54_001-mesh-map-0-array" count="96">0 0.125 -0.01999998 0.1225 0 0 -0.01999998 0.1225 0 0.125 -1 0.125 -0.01999998 0.1225 -1 0.125 -0.98 0.1225 -0.98 0.1225 -1 0.125 -0.98 0.002499997 0 0 -0.01999998 0.002499997 -1 0 -0.01999998 0.002499997 0 0 -0.01999998 0.1225 -1 0 -0.01999998 0.002499997 -0.98 0.002499997 -1 0 -0.98 0.002499997 -1 0.125 -1 0.125 -0.98 0.002499997 -1 0 -0.98 0.002499997 -0.01999998 0.002499997 -1 0 -0.01999998 0.1225 0 0 -0.01999998 0.002499997 -1 0 -0.01999998 0.002499997 0 0 -0.98 0.002499997 -1 0.125 -0.98 0.1225 -0.98 0.1225 -1 0.125 -0.01999998 0.1225 -1 0.125 0 0.125 -0.01999998 0.1225 0 0 -0.01999998 0.1225 0 0.125</float_array>
          <technique_common>
            <accessor source="#ID54_001-mesh-map-0-array" count="48" stride="2">
              <param name="S" type="float"/>
              <param name="T" type="float"/>
            </accessor>
          </technique_common>
        </source>
        <vertices id="ID54_001-mesh-vertices">
          <input semantic="POSITION" source="#ID54_001-mesh-positions"/>
        </vertices>
        <triangles material="Wood_Cherry_Original-material" count="16">
          <input semantic="VERTEX" source="#ID54_001-mesh-vertices" offset="0"/>
          <input semantic="NORMAL" source="#ID54_001-mesh-normals" offset="1"/>
          <input semantic="TEXCOORD" source="#ID54_001-mesh-map-0" offset="2" set="0"/>
          <p>0 0 0 1 0 1 2 0 2 1 0 3 0 0 4 3 0 5 1 0 6 3 0 7 4 0 8 4 0 9 3 0 10 5 0 11 2 0 12 6 0 13 7 0 14 6 0 15 2 0 16 1 0 17 7 0 18 6 0 19 5 0 20 7 0 21 5 0 22 3 0 23 8 1 24 9 1 25 10 1 26 9 2 27 11 2 28 10 2 29 12 3 30 13 3 31 11 3 32 10 2 33 11 2 34 13 2 35 9 4 36 8 4 37 14 4 38 14 2 39 8 2 40 12 2 41 8 2 42 15 2 43 12 2 44 13 5 45 12 5 46 15 5 47</p>
        </triangles>
      </mesh>
    </geometry>
    <geometry id="ID64_001-mesh" name="ID64.001">
      <mesh>
        <source id="ID64_001-mesh-positions">
          <float_array id="ID64_001-mesh-positions-array" count="48">5.708661 5.708661 0.984252 0.03937005 5.708661 0 5.708661 5.708661 0 0.03937005 5.708661 0.984252 5.708661 5.708661 0.984252 5.708661 0.03937005 0 5.708661 0.03937005 0.984252 5.708661 5.708661 0 0.03937005 5.708661 0 0.03937005 0.03937005 0.984252 0.03937005 0.03937005 0 0.03937005 5.708661 0.984252 0.03937005 0.03937005 0.984252 5.708661 0.03937005 0 0.03937005 0.03937005 0 5.708661 0.03937005 0.984252</float_array>
          <technique_common>
            <accessor source="#ID64_001-mesh-positions-array" count="16" stride="3">
              <param name="X" type="float"/>
              <param name="Y" type="float"/>
              <param name="Z" type="float"/>
            </accessor>
          </technique_common>
        </source>
        <source id="ID64_001-mesh-normals">
          <float_array id="ID64_001-mesh-normals-array" count="12">0 -1 0 -1 0 0 1 0 0 0 1 0</float_array>
          <technique_common>
            <accessor source="#ID64_001-mesh-normals-array" count="4" stride="3">
              <param name="X" type="float"/>
              <param name="Y" type="float"/>
              <param name="Z" type="float"/>
            </accessor>
          </technique_common>
        </source>
        <vertices id="ID64_001-mesh-vertices">
          <input semantic="POSITION" source="#ID64_001-mesh-positions"/>
        </vertices>
        <triangles material="material_001-material" count="8">
          <input semantic="VERTEX" source="#ID64_001-mesh-vertices" offset="0"/>
          <input semantic="NORMAL" source="#ID64_001-mesh-normals" offset="1"/>
          <p>0 0 1 0 2 0 1 0 0 0 3 0 4 1 5 1 6 1 5 1 4 1 7 1 8 2 9 2 10 2 9 2 8 2 11 2 12 3 13 3 14 3 13 3 12 3 15 3</p>
        </triangles>
      </mesh>
    </geometry>
    <geometry id="ID70-mesh" name="ID70">
      <mesh>
        <source id="ID70-mesh-positions">
          <float_array id="ID70-mesh-positions-array" count="48">0 5.748031 0.984252 5.748031 5.748031 0 0 5.748031 0 5.748031 5.748031 0.984252 5.748031 5.748031 0 5.748031 0 0.984252 5.748031 0 0 5.748031 5.748031 0.984252 0 5.748031 0.984252 0 0 0 0 0 0.984252 0 5.748031 0 5.748031 0 0.984252 0 0 0 5.748031 0 0 0 0 0.984252</float_array>
          <technique_common>
            <accessor source="#ID70-mesh-positions-array" count="16" stride="3">
              <param name="X" type="float"/>
              <param name="Y" type="float"/>
              <param name="Z" type="float"/>
            </accessor>
          </technique_common>
        </source>
        <source id="ID70-mesh-normals">
          <float_array id="ID70-mesh-normals-array" count="12">0 1 0 1 0 0 -1 0 0 0 -1 0</float_array>
          <technique_common>
            <accessor source="#ID70-mesh-normals-array" count="4" stride="3">
              <param name="X" type="float"/>
              <param name="Y" type="float"/>
              <param name="Z" type="float"/>
            </accessor>
          </technique_common>
        </source>
        <source id="ID70-mesh-map-0">
          <float_array id="ID70-mesh-map-0-array" count="48">-0.01333332 6.666667 -0.9866667 6.5 -0.01333332 6.5 -0.9866667 6.5 -0.01333332 6.666667 -0.9866667 6.666667 0.9866667 6.5 0.01333332 6.666667 0.01333332 6.5 0.01333332 6.666667 0.9866667 6.5 0.9866667 6.666667 -0.9866667 6.666667 -0.01333332 6.5 -0.01333332 6.666667 -0.01333332 6.5 -0.9866667 6.666667 -0.9866667 6.5 0.9866667 6.666667 0.01333332 6.5 0.9866667 6.5 0.01333332 6.5 0.9866667 6.666667 0.01333332 6.666667</float_array>
          <technique_common>
            <accessor source="#ID70-mesh-map-0-array" count="24" stride="2">
              <param name="S" type="float"/>
              <param name="T" type="float"/>
            </accessor>
          </technique_common>
        </source>
        <vertices id="ID70-mesh-vertices">
          <input semantic="POSITION" source="#ID70-mesh-positions"/>
        </vertices>
        <triangles material="Metal_Corrugated_Shiny-material" count="8">
          <input semantic="VERTEX" source="#ID70-mesh-vertices" offset="0"/>
          <input semantic="NORMAL" source="#ID70-mesh-normals" offset="1"/>
          <input semantic="TEXCOORD" source="#ID70-mesh-map-0" offset="2" set="0"/>
          <p>0 0 0 1 0 1 2 0 2 1 0 3 0 0 4 3 0 5 4 1 6 5 1 7 6 1 8 5 1 9 4 1 10 7 1 11 8 2 12 9 2 13 10 2 14 9 2 15 8 2 16 11 2 17 12 3 18 13 3 19 14 3 20 13 3 21 12 3 22 15 3 23</p>
        </triangles>
      </mesh>
    </geometry>
    <geometry id="ID83-mesh" name="ID83">
      <mesh>
        <source id="ID83-mesh-positions">
          <float_array id="ID83-mesh-positions-array" count="24">0 5.748031 0 0.03937005 5.708661 0 0 0 0 5.748031 5.748031 0 0.03937005 0.03937005 0 5.708661 5.708661 0 5.708661 0.03937005 0 5.748031 0 0</float_array>
          <technique_common>
            <accessor source="#ID83-mesh-positions-array" count="8" stride="3">
              <param name="X" type="float"/>
              <param name="Y" type="float"/>
              <param name="Z" type="float"/>
            </accessor>
          </technique_common>
        </source>
        <source id="ID83-mesh-normals">
          <float_array id="ID83-mesh-normals-array" count="3">0 0 -1</float_array>
          <technique_common>
            <accessor source="#ID83-mesh-normals-array" count="1" stride="3">
              <param name="X" type="float"/>
              <param name="Y" type="float"/>
              <param name="Z" type="float"/>
            </accessor>
          </technique_common>
        </source>
        <vertices id="ID83-mesh-vertices">
          <input semantic="POSITION" source="#ID83-mesh-positions"/>
        </vertices>
        <triangles material="material_001-material" count="8">
          <input semantic="VERTEX" source="#ID83-mesh-vertices" offset="0"/>
          <input semantic="NORMAL" source="#ID83-mesh-normals" offset="1"/>
          <p>0 0 1 0 2 0 1 0 0 0 3 0 2 0 1 0 4 0 1 0 3 0 5 0 5 0 3 0 6 0 4 0 7 0 2 0 7 0 4 0 6 0 7 0 6 0 3 0</p>
        </triangles>
      </mesh>
    </geometry>
    <geometry id="ID89-mesh" name="ID89">
      <mesh>
        <source id="ID89-mesh-positions">
          <float_array id="ID89-mesh-positions-array" count="24">0 0 0.984252 0.03937005 0.03937005 0.984252 0 5.748031 0.984252 5.748031 0 0.984252 5.708661 0.03937005 0.984252 5.708661 5.708661 0.984252 0.03937005 5.708661 0.984252 5.748031 5.748031 0.984252</float_array>
          <technique_common>
            <accessor source="#ID89-mesh-positions-array" count="8" stride="3">
              <param name="X" type="float"/>
              <param name="Y" type="float"/>
              <param name="Z" type="float"/>
            </accessor>
          </technique_common>
        </source>
        <source id="ID89-mesh-normals">
          <float_array id="ID89-mesh-normals-array" count="3">0 0 1</float_array>
          <technique_common>
            <accessor source="#ID89-mesh-normals-array" count="1" stride="3">
              <param name="X" type="float"/>
              <param name="Y" type="float"/>
              <param name="Z" type="float"/>
            </accessor>
          </technique_common>
        </source>
        <vertices id="ID89-mesh-vertices">
          <input semantic="POSITION" source="#ID89-mesh-positions"/>
        </vertices>
        <triangles material="material_001-material" count="8">
          <input semantic="VERTEX" source="#ID89-mesh-vertices" offset="0"/>
          <input semantic="NORMAL" source="#ID89-mesh-normals" offset="1"/>
          <p>0 0 1 0 2 0 1 0 0 0 3 0 1 0 3 0 4 0 4 0 3 0 5 0 2 0 6 0 7 0 6 0 2 0 1 0 7 0 6 0 5 0 7 0 5 0 3 0</p>
        </triangles>
      </mesh>
    </geometry>
  </library_geometries>
  <library_controllers/>
  <library_visual_scenes>
    <visual_scene id="Scene" name="Scene">
      <node id="Camera" name="Camera" type="NODE">
        <matrix sid="transform">0.6859207 -0.3240135 0.6515582 7.481132 0.7276763 0.3054208 -0.6141704 -6.50764 0 0.8953956 0.4452714 5.343665 0 0 0 1</matrix>
        <instance_camera url="#Camera-camera"/>
      </node>
      <node id="Lamp" name="Lamp" type="NODE">
        <matrix sid="transform">-0.2908646 -0.7711008 0.5663932 4.076245 0.9551712 -0.1998834 0.2183912 1.005454 -0.05518906 0.6045247 0.7946723 5.903862 0 0 0 1</matrix>
        <instance_light url="#Lamp-light"/>
      </node>
      <node id="Camera_001" name="Camera_001" type="NODE">
        <matrix sid="transform">0.6859207 -0.3240134 0.6515582 7.481132 0.7276763 0.3054208 -0.6141704 -6.50764 -4.01133e-9 0.8953956 0.4452714 5.343665 0 0 0 1</matrix>
        <instance_camera url="#Camera_001-camera"/>
      </node>
      <node id="Lamp_001" name="Lamp_001" type="NODE">
        <matrix sid="transform">-0.2908646 -0.7711008 0.5663933 4.076245 0.9551712 -0.1998833 0.2183912 1.005454 -0.05518906 0.6045247 0.7946723 5.903862 0 0 0 1</matrix>
        <instance_light url="#Lamp_001-light"/>
      </node>
      <node id="Camera_002" name="Camera_002" type="NODE">
        <matrix sid="transform">0.6859207 -0.3240134 0.6515582 7.481132 0.7276763 0.3054208 -0.6141704 -6.50764 -4.01133e-9 0.8953956 0.4452714 5.343665 0 0 0 1</matrix>
        <instance_camera url="#Camera_002-camera"/>
      </node>
      <node id="Lamp_002" name="Lamp_002" type="NODE">
        <matrix sid="transform">-0.2908646 -0.7711008 0.5663933 4.076245 0.9551712 -0.1998833 0.2183912 1.005454 -0.05518906 0.6045247 0.7946723 5.903862 0 0 0 1</matrix>
        <instance_light url="#Lamp_002-light"/>
      </node>
      <node id="Camera_003" name="Camera_003" type="NODE">
        <matrix sid="transform">0.6859207 -0.3240134 0.6515582 7.481132 0.7276763 0.3054208 -0.6141704 -6.50764 -4.01133e-9 0.8953956 0.4452714 5.343665 0 0 0 1</matrix>
        <instance_camera url="#Camera_003-camera"/>
      </node>
      <node id="Lamp_003" name="Lamp_003" type="NODE">
        <matrix sid="transform">-0.2908646 -0.7711008 0.5663933 4.076245 0.9551712 -0.1998833 0.2183912 1.005454 -0.05518906 0.6045247 0.7946723 5.903862 0 0 0 1</matrix>
        <instance_light url="#Lamp_003-light"/>
      </node>
      <node id="SketchUp" name="SketchUp" type="NODE">
        <matrix sid="transform">0.01657915 0 0 -0.05314661 0 0.01657915 0 -0.06348176 0 0 0.01657915 -0.09386522 0 0 0 1</matrix>
        <node id="skp_camera_Last_Saved_SketchUp_View" name="skp_camera_Last_Saved_SketchUp_View" type="NODE">
          <matrix sid="transform">0.6347212 -0.2774498 0.7212147 62.16101 0.7727413 0.2278942 -0.5923977 -41.34117 4.59177e-8 0.9333198 0.3590463 55.42877 0 0 0 1</matrix>
          <instance_camera url="#skp_camera_Last_Saved_SketchUp_View-camera"/>
        </node>
        <node id="instance_0" name="instance_0" type="NODE">
          <matrix sid="transform">1 1.26489e-7 0 0 0 1 0 2.38419e-7 1.19209e-7 0 1 0 0 0 0 1</matrix>
          <instance_geometry url="#ID5-mesh" name="instance_0">
            <bind_material>
              <technique_common>
                <instance_material symbol="Wood_Cherry_Original-material" target="#Wood_Cherry_Original-material"/>
              </technique_common>
            </bind_material>
          </instance_geometry>
        </node>
        <node id="instance_0_001" name="instance_0_001" type="NODE">
          <matrix sid="transform">1 1.26489e-7 0 0 0 1 0 2.38419e-7 1.19209e-7 0 1 0 0 0 0 1</matrix>
          <instance_geometry url="#ID18_003-mesh" name="instance_0_001">
            <bind_material>
              <technique_common>
                <instance_material symbol="Wood_Cherry_Original-material" target="#Wood_Cherry_Original-material"/>
                <instance_material symbol="material_001-material" target="#material_001-material"/>
              </technique_common>
            </bind_material>
          </instance_geometry>
        </node>
        <node id="instance_0_002" name="instance_0_002" type="NODE">
          <matrix sid="transform">1 1.26489e-7 0 0 0 1 0 2.38419e-7 1.19209e-7 0 1 0 0 0 0 1</matrix>
          <instance_geometry url="#ID28-mesh" name="instance_0_002">
            <bind_material>
              <technique_common>
                <instance_material symbol="material_001-material" target="#material_001-material"/>
              </technique_common>
            </bind_material>
          </instance_geometry>
        </node>
        <node id="instance_0_003" name="instance_0_003" type="NODE">
          <matrix sid="transform">1 1.26489e-7 0 0 0 1 0 2.38419e-7 1.19209e-7 0 1 0 0 0 0 1</matrix>
          <instance_geometry url="#ID34_003-mesh" name="instance_0_003">
            <bind_material>
              <technique_common>
                <instance_material symbol="material_001-material" target="#material_001-material"/>
              </technique_common>
            </bind_material>
          </instance_geometry>
        </node>
        <node id="instance_0_004" name="instance_0_004" type="NODE">
          <matrix sid="transform">1 1.26489e-7 0 0 0 1 0 2.38419e-7 1.19209e-7 0 1 0 0 0 0 1</matrix>
          <instance_geometry url="#ID40_003-mesh" name="instance_0_004">
            <bind_material>
              <technique_common>
                <instance_material symbol="material_001-material" target="#material_001-material"/>
              </technique_common>
            </bind_material>
          </instance_geometry>
        </node>
        <node id="instance_0_005" name="instance_0_005" type="NODE">
          <matrix sid="transform">1 1.26489e-7 0 0 0 1 0 2.38419e-7 1.19209e-7 0 1 0 0 0 0 1</matrix>
          <instance_geometry url="#ID46_001-mesh" name="instance_0_005">
            <bind_material>
              <technique_common>
                <instance_material symbol="Wood_Cherry_Original-material" target="#Wood_Cherry_Original-material"/>
              </technique_common>
            </bind_material>
          </instance_geometry>
        </node>
        <node id="instance_0_006" name="instance_0_006" type="NODE">
          <matrix sid="transform">1 1.26489e-7 0 0 0 1 0 2.38419e-7 1.19209e-7 0 1 0 0 0 0 1</matrix>
          <instance_geometry url="#ID54_001-mesh" name="instance_0_006">
            <bind_material>
              <technique_common>
                <instance_material symbol="Wood_Cherry_Original-material" target="#Wood_Cherry_Original-material"/>
              </technique_common>
            </bind_material>
          </instance_geometry>
        </node>
        <node id="instance_1" name="instance_1" type="NODE">
          <matrix sid="transform">1 1.26489e-7 0 0.07874012 0 1 0 0.07874036 1.19209e-7 0 1 38.38583 0 0 0 1</matrix>
          <instance_geometry url="#ID64_001-mesh" name="instance_1">
            <bind_material>
              <technique_common>
                <instance_material symbol="material_001-material" target="#material_001-material"/>
              </technique_common>
            </bind_material>
          </instance_geometry>
        </node>
        <node id="instance_1_001" name="instance_1_001" type="NODE">
          <matrix sid="transform">1 1.26489e-7 0 0.07874012 0 1 0 0.07874036 1.19209e-7 0 1 38.38583 0 0 0 1</matrix>
          <instance_geometry url="#ID70-mesh" name="instance_1_001">
            <bind_material>
              <technique_common>
                <instance_material symbol="Metal_Corrugated_Shiny-material" target="#Metal_Corrugated_Shiny-material"/>
              </technique_common>
            </bind_material>
          </instance_geometry>
        </node>
        <node id="instance_1_002" name="instance_1_002" type="NODE">
          <matrix sid="transform">1 1.26489e-7 0 0.07874012 0 1 0 0.07874036 1.19209e-7 0 1 38.38583 0 0 0 1</matrix>
          <instance_geometry url="#ID83-mesh" name="instance_1_002">
            <bind_material>
              <technique_common>
                <instance_material symbol="material_001-material" target="#material_001-material"/>
              </technique_common>
            </bind_material>
          </instance_geometry>
        </node>
        <node id="instance_1_003" name="instance_1_003" type="NODE">
          <matrix sid="transform">1 1.26489e-7 0 0.07874012 0 1 0 0.07874036 1.19209e-7 0 1 38.38583 0 0 0 1</matrix>
          <instance_geometry url="#ID89-mesh" name="instance_1_003">
            <bind_material>
              <technique_common>
                <instance_material symbol="material_001-material" target="#material_001-material"/>
              </technique_common>
            </bind_material>
          </instance_geometry>
        </node>
      </node>
    </visual_scene>
  </library_visual_scenes>
  <scene>
    <instance_visual_scene url="#Scene"/>
  </scene>
</COLLADA>
