<?xml version="1.0" encoding="utf-8"?>
<COLLADA xmlns="http://www.collada.org/2005/11/COLLADASchema" version="1.4.1">
  <asset>
    <contributor>
      <author>Blender User</author>
      <authoring_tool>Blender 2.79.0</authoring_tool>
    </contributor>
    <created>2018-05-03T12:10:23</created>
    <modified>2018-05-03T12:10:23</modified>
    <unit name="meter" meter="1"/>
    <up_axis>Z_UP</up_axis>
  </asset>
  <library_cameras>
    <camera id="Camera-camera" name="Camera">
      <optics>
        <technique_common>
          <perspective>
            <xfov sid="xfov">49.13434</xfov>
            <aspect_ratio>1.777778</aspect_ratio>
            <znear sid="znear">0.1</znear>
            <zfar sid="zfar">100</zfar>
          </perspective>
        </technique_common>
      </optics>
      <extra>
        <technique profile="blender">
          <YF_dofdist>0</YF_dofdist>
          <shiftx>0</shiftx>
          <shifty>0</shifty>
        </technique>
      </extra>
    </camera>
    <camera id="Camera_001-camera" name="Camera.001">
      <optics>
        <technique_common>
          <perspective>
            <xfov sid="xfov">49.13434</xfov>
            <aspect_ratio>1.777778</aspect_ratio>
            <znear sid="znear">0.1</znear>
            <zfar sid="zfar">100</zfar>
          </perspective>
        </technique_common>
      </optics>
      <extra>
        <technique profile="blender">
          <YF_dofdist>0</YF_dofdist>
          <shiftx>0</shiftx>
          <shifty>0</shifty>
        </technique>
      </extra>
    </camera>
    <camera id="skp_camera_Last_Saved_SketchUp_View-camera" name="skp_camera_Last_Saved_SketchUp_View.005">
      <optics>
        <technique_common>
          <perspective>
            <xfov sid="xfov">0</xfov>
            <aspect_ratio>1.777778</aspect_ratio>
            <znear sid="znear">1</znear>
            <zfar sid="zfar">1000</zfar>
          </perspective>
        </technique_common>
      </optics>
      <extra>
        <technique profile="blender">
          <YF_dofdist>0</YF_dofdist>
          <shiftx>0</shiftx>
          <shifty>0</shifty>
        </technique>
      </extra>
    </camera>
  </library_cameras>
  <library_lights>
    <light id="Lamp-light" name="Lamp">
      <technique_common>
        <point>
          <color sid="color">1 1 1</color>
          <constant_attenuation>1</constant_attenuation>
          <linear_attenuation>0</linear_attenuation>
          <quadratic_attenuation>0.00111109</quadratic_attenuation>
        </point>
      </technique_common>
      <extra>
        <technique profile="blender">
          <adapt_thresh>0.000999987</adapt_thresh>
          <area_shape>1</area_shape>
          <area_size>0.1</area_size>
          <area_sizey>0.1</area_sizey>
          <area_sizez>1</area_sizez>
          <atm_distance_factor>1</atm_distance_factor>
          <atm_extinction_factor>1</atm_extinction_factor>
          <atm_turbidity>2</atm_turbidity>
          <att1>0</att1>
          <att2>1</att2>
          <backscattered_light>1</backscattered_light>
          <bias>1</bias>
          <blue>1</blue>
          <buffers>1</buffers>
          <bufflag>0</bufflag>
          <bufsize>2880</bufsize>
          <buftype>2</buftype>
          <clipend>30.002</clipend>
          <clipsta>1.000799</clipsta>
          <compressthresh>0.04999995</compressthresh>
          <dist sid="blender_dist">29.99998</dist>
          <energy sid="blender_energy">1</energy>
          <falloff_type>2</falloff_type>
          <filtertype>0</filtertype>
          <flag>0</flag>
          <gamma sid="blender_gamma">1</gamma>
          <green>1</green>
          <halo_intensity sid="blnder_halo_intensity">1</halo_intensity>
          <horizon_brightness>1</horizon_brightness>
          <mode>8192</mode>
          <ray_samp>1</ray_samp>
          <ray_samp_method>1</ray_samp_method>
          <ray_samp_type>0</ray_samp_type>
          <ray_sampy>1</ray_sampy>
          <ray_sampz>1</ray_sampz>
          <red>1</red>
          <samp>3</samp>
          <shadhalostep>0</shadhalostep>
          <shadow_b sid="blender_shadow_b">0</shadow_b>
          <shadow_g sid="blender_shadow_g">0</shadow_g>
          <shadow_r sid="blender_shadow_r">0</shadow_r>
          <sky_colorspace>0</sky_colorspace>
          <sky_exposure>1</sky_exposure>
          <skyblendfac>1</skyblendfac>
          <skyblendtype>1</skyblendtype>
          <soft>3</soft>
          <spotblend>0.15</spotblend>
          <spotsize>75</spotsize>
          <spread>1</spread>
          <sun_brightness>1</sun_brightness>
          <sun_effect_type>0</sun_effect_type>
          <sun_intensity>1</sun_intensity>
          <sun_size>1</sun_size>
          <type>0</type>
        </technique>
      </extra>
    </light>
    <light id="Lamp_001-light" name="Lamp.001">
      <technique_common>
        <point>
          <color sid="color">1 1 1</color>
          <constant_attenuation>1</constant_attenuation>
          <linear_attenuation>0</linear_attenuation>
          <quadratic_attenuation>0.00111109</quadratic_attenuation>
        </point>
      </technique_common>
      <extra>
        <technique profile="blender">
          <adapt_thresh>9.99987e-4</adapt_thresh>
          <area_shape>1</area_shape>
          <area_size>0.1</area_size>
          <area_sizey>0.1</area_sizey>
          <area_sizez>1</area_sizez>
          <atm_distance_factor>1</atm_distance_factor>
          <atm_extinction_factor>1</atm_extinction_factor>
          <atm_turbidity>2</atm_turbidity>
          <att1>0</att1>
          <att2>1</att2>
          <backscattered_light>1</backscattered_light>
          <bias>1</bias>
          <blue>1</blue>
          <buffers>1</buffers>
          <bufflag>0</bufflag>
          <bufsize>2880</bufsize>
          <buftype>2</buftype>
          <clipend>30.002</clipend>
          <clipsta>1.000799</clipsta>
          <compressthresh>0.04999995</compressthresh>
          <dist sid="blender_dist">29.99998</dist>
          <energy sid="blender_energy">1</energy>
          <falloff_type>2</falloff_type>
          <filtertype>0</filtertype>
          <flag>0</flag>
          <gamma sid="blender_gamma">1</gamma>
          <green>1</green>
          <halo_intensity sid="blnder_halo_intensity">1</halo_intensity>
          <horizon_brightness>1</horizon_brightness>
          <mode>8192</mode>
          <ray_samp>1</ray_samp>
          <ray_samp_method>1</ray_samp_method>
          <ray_samp_type>0</ray_samp_type>
          <ray_sampy>1</ray_sampy>
          <ray_sampz>1</ray_sampz>
          <red>1</red>
          <samp>3</samp>
          <shadhalostep>0</shadhalostep>
          <shadow_b sid="blender_shadow_b">0</shadow_b>
          <shadow_g sid="blender_shadow_g">0</shadow_g>
          <shadow_r sid="blender_shadow_r">0</shadow_r>
          <sky_colorspace>0</sky_colorspace>
          <sky_exposure>1</sky_exposure>
          <skyblendfac>1</skyblendfac>
          <skyblendtype>1</skyblendtype>
          <soft>3</soft>
          <spotblend>0.15</spotblend>
          <spotsize>75</spotsize>
          <spread>1</spread>
          <sun_brightness>1</sun_brightness>
          <sun_effect_type>0</sun_effect_type>
          <sun_intensity>1</sun_intensity>
          <sun_size>1</sun_size>
          <type>0</type>
        </technique>
      </extra>
    </light>
  </library_lights>
  <library_images/>
  <library_effects>
    <effect id="Color_000_002-effect">
      <profile_COMMON>
        <technique sid="common">
          <phong>
            <emission>
              <color sid="emission">0 0 0 1</color>
            </emission>
            <ambient>
              <color sid="ambient">0.8 0.8 0.8 1</color>
            </ambient>
            <diffuse>
              <color sid="diffuse">1 1 1 1</color>
            </diffuse>
            <specular>
              <color sid="specular">0.5 0.5 0.5 1</color>
            </specular>
            <shininess>
              <float sid="shininess">50</float>
            </shininess>
            <index_of_refraction>
              <float sid="index_of_refraction">1</float>
            </index_of_refraction>
          </phong>
        </technique>
      </profile_COMMON>
    </effect>
  </library_effects>
  <library_materials>
    <material id="Color_000_002-material" name="Color_000_002">
      <instance_effect url="#Color_000_002-effect"/>
    </material>
  </library_materials>
  <library_geometries>
    <geometry id="ID4_003-mesh" name="ID4.003">
      <mesh>
        <source id="ID4_003-mesh-positions">
          <float_array id="ID4_003-mesh-positions-array" count="576">3.622047 0.9066708 0.9066708 3.38844 0.7224159 1.082677 3.38844 0.8788319 0.8788319 3.622047 0.7565114 1.102362 3.622047 0.7565114 1.102362 3.622047 0.9066708 0.9066708 3.38844 0.7224159 1.082677 3.38844 0.8788319 0.8788319 3.38844 0.6240888 1.32006 3.622047 0.6621173 1.33025 3.622047 0.6621173 1.33025 3.38844 0.6240888 1.32006 3.622047 1.102362 0.7565114 3.38844 1.082677 0.7224159 3.622047 1.102362 0.7565114 3.38844 1.082677 0.7224159 3.622047 0.6621173 1.33025 3.622047 0.6621173 1.819357 3.622047 0.6299213 1.574803 3.622047 0.6692913 1.574803 3.622047 0.7001459 1.340439 3.622047 0.7565114 1.102362 3.622047 0.7906069 1.122047 3.622047 0.9066708 0.9066708 3.622047 0.9345096 0.9345096 3.622047 1.102362 0.7565114 3.622047 1.122047 0.7906069 3.622047 1.33025 0.6621173 3.622047 1.340439 0.7001459 3.622047 1.574803 0.6299213 3.622047 1.574803 0.6692913 3.622047 1.819357 0.6621173 3.622047 1.809167 0.7001459 3.622047 2.027559 0.7906069 3.622047 2.047244 0.7565114 3.622047 2.215097 0.9345096 3.622047 2.242936 0.9066708 3.622047 2.358999 1.122047 3.622047 2.393095 1.102362 3.622047 2.44946 1.340439 3.622047 2.487489 1.33025 3.622047 2.480315 1.574803 3.622047 0.7001459 1.809167 3.622047 0.7565114 2.047244 3.622047 0.7906069 2.027559 3.622047 0.9066708 2.242936 3.622047 0.9345096 2.215097 3.622047 1.102362 2.393095 3.622047 1.122047 2.358999 3.622047 1.33025 2.487489 3.622047 1.340439 2.44946 3.622047 1.574803 2.519685 3.622047 1.574803 2.480315 3.622047 1.819357 2.487489 3.622047 1.809167 2.44946 3.622047 2.027559 2.358999 3.622047 2.047244 2.393095 3.622047 2.215097 2.215097 3.622047 2.242936 2.242936 3.622047 2.358999 2.027559 3.622047 2.393095 2.047244 3.622047 2.44946 1.809167 3.622047 2.487489 1.819357 3.622047 2.519685 1.574803 3.622047 2.519685 1.574803 3.622047 2.487489 1.33025 3.622047 2.487489 1.819357 3.622047 2.480315 1.574803 3.622047 2.44946 1.809167 3.622047 2.393095 2.047244 3.622047 2.358999 2.027559 3.622047 2.242936 2.242936 3.622047 2.215097 2.215097 3.622047 2.047244 2.393095 3.622047 2.027559 2.358999 3.622047 1.819357 2.487489 3.622047 1.809167 2.44946 3.622047 1.574803 2.480315 3.622047 1.574803 2.519685 3.622047 1.340439 2.44946 3.622047 1.33025 2.487489 3.622047 1.122047 2.358999 3.622047 1.102362 2.393095 3.622047 0.9345096 2.215097 3.622047 0.9066708 2.242936 3.622047 0.7906069 2.027559 3.622047 0.7565114 2.047244 3.622047 0.7001459 1.809167 3.622047 0.6692913 1.574803 3.622047 0.6621173 1.819357 3.622047 2.44946 1.340439 3.622047 2.393095 1.102362 3.622047 2.358999 1.122047 3.622047 2.242936 0.9066708 3.622047 2.215097 0.9345096 3.622047 2.047244 0.7565114 3.622047 2.027559 0.7906069 3.622047 1.819357 0.6621173 3.622047 1.809167 0.7001459 3.622047 1.574803 0.6692913 3.622047 1.574803 0.6299213 3.622047 1.340439 0.7001459 3.622047 1.33025 0.6621173 3.622047 1.122047 0.7906069 3.622047 1.102362 0.7565114 3.622047 0.9345096 0.9345096 3.622047 0.9066708 0.9066708 3.622047 0.7906069 1.122047 3.622047 0.7565114 1.102362 3.622047 0.7001459 1.340439 3.622047 0.6621173 1.33025 3.622047 0.6299213 1.574803 3.38844 0.5905512 1.574803 3.622047 0.6299213 1.574803 3.622047 0.6299213 1.574803 3.38844 0.5905512 1.574803 3.622047 1.33025 0.6621173 3.38844 1.32006 0.6240888 3.622047 1.33025 0.6621173 3.38844 1.32006 0.6240888 3.622047 0.9066708 2.242936 3.38844 1.082677 2.42719 3.38844 0.8788319 2.270774 3.622047 1.102362 2.393095 3.622047 1.102362 2.393095 3.622047 0.9066708 2.242936 3.38844 1.082677 2.42719 3.38844 0.8788319 2.270774 3.38844 0.7224159 2.066929 3.622047 0.7565114 2.047244 3.38844 0.7224159 2.066929 3.622047 0.7565114 2.047244 3.38844 0.6240888 1.829546 3.622047 0.6621173 1.819357 3.38844 0.6240888 1.829546 3.622047 0.6621173 1.819357 3.622047 1.574803 0.6299213 3.38844 1.574803 0.5905512 3.622047 1.574803 0.6299213 3.38844 1.574803 0.5905512 3.622047 1.819357 0.6621173 3.38844 1.829546 0.6240888 3.622047 1.819357 0.6621173 3.38844 1.829546 0.6240888 3.622047 2.047244 0.7565114 3.38844 2.066929 0.7224159 3.622047 2.047244 0.7565114 3.38844 2.066929 0.7224159 3.622047 2.242936 0.9066708 3.38844 2.270774 0.8788319 3.622047 2.242936 0.9066708 3.38844 2.270774 0.8788319 3.38844 2.42719 1.082677 3.622047 2.393095 1.102362 3.622047 2.393095 1.102362 3.38844 2.42719 1.082677 3.38844 2.525518 1.32006 3.622047 2.487489 1.33025 3.622047 2.487489 1.33025 3.38844 2.525518 1.32006 3.38844 2.559055 1.574803 3.622047 2.519685 1.574803 3.622047 2.519685 1.574803 3.38844 2.559055 1.574803 3.38844 2.525518 1.829546 3.622047 2.487489 1.819357 3.622047 2.487489 1.819357 3.38844 2.525518 1.829546 3.622047 2.393095 2.047244 3.38844 2.42719 2.066929 3.38844 2.42719 2.066929 3.622047 2.393095 2.047244 3.622047 2.242936 2.242936 3.38844 2.270774 2.270774 3.38844 2.270774 2.270774 3.622047 2.242936 2.242936 3.622047 2.047244 2.393095 3.38844 2.066929 2.42719 3.622047 2.047244 2.393095 3.38844 2.066929 2.42719 3.622047 1.819357 2.487489 3.38844 1.829546 2.525518 3.622047 1.819357 2.487489 3.38844 1.829546 2.525518 3.622047 1.574803 2.519685 3.38844 1.574803 2.559055 3.622047 1.574803 2.519685 3.38844 1.574803 2.559055 3.622047 1.33025 2.487489 3.38844 1.32006 2.525518 3.622047 1.33025 2.487489 3.38844 1.32006 2.525518</float_array>
          <technique_common>
            <accessor source="#ID4_003-mesh-positions-array" count="192" stride="3">
              <param name="X" type="float"/>
              <param name="Y" type="float"/>
              <param name="Z" type="float"/>
            </accessor>
          </technique_common>
        </source>
        <source id="ID4_003-mesh-normals">
          <float_array id="ID4_003-mesh-normals-array" count="279">0.1661777 -0.6972751 -0.6972751 0.1661773 -0.8539896 -0.4930384 -0.1661773 0.8539896 0.4930384 -0.1661777 0.6972751 0.6972751 0.1661764 -0.952501 -0.2552006 -0.1661764 0.952501 0.2552006 0.1661773 -0.4930384 -0.8539896 -0.1661773 0.4930384 0.8539896 1 7.57015e-6 0 1 -3.39738e-5 0 1 8.07484e-7 0 1 0 0 1 -4.84492e-6 0 1 -1.23815e-5 0 1 9.68981e-6 0 1 3.22996e-6 0 1 3.22992e-6 0 1 -6.45986e-6 0 1 -1.29197e-5 0 1 1.23814e-5 0 1 1.61499e-6 0 1 7.7384e-7 0 1 -1.61495e-6 0 1 -3.09534e-6 0 1 -3.09532e-6 0 1 -3.09531e-6 0 1 -1.54766e-6 0 1 3.39738e-5 0 1 -7.57014e-6 0 -1 0 0 -1 -3.39738e-5 0 -1 -1.61495e-6 0 -1 -3.2299e-6 0 -1 -3.22992e-6 0 -1 -3.22988e-6 0 -1 8.07473e-7 0 -1 -3.09535e-6 0 -1 -3.09535e-6 0 -1 -3.09532e-6 0 -1 1.61496e-6 0 -1 -1.54768e-6 0 -1 8.07477e-7 0 -1 -4.84491e-6 0 -1 -1.23814e-5 0 -1 9.68978e-6 0 -1 -6.1907e-6 0 -1 3.22993e-6 0 -1 8.07481e-7 0 -1 -6.45993e-6 0 -1 3.09535e-6 0 -1 -1.29197e-5 0 -1 7.73842e-6 0 -1 7.7384e-7 0 0.1661754 -0.9860963 0 -0.1661754 0.9860963 0 0.1661764 -0.2552006 -0.952501 -0.1661764 0.2552006 0.952501 0.1661777 -0.6972751 0.6972751 0.1661773 -0.4930384 0.8539896 -0.1661773 0.4930384 -0.8539896 -0.1661777 0.6972751 -0.6972751 0.1661773 -0.8539896 0.4930384 -0.1661773 0.8539896 -0.4930384 0.1661764 -0.952501 0.2552006 -0.1661764 0.952501 -0.2552006 0.1661754 0 -0.9860963 -0.1661754 0 0.9860963 0.1661764 0.2552006 -0.952501 -0.1661764 -0.2552006 0.952501 0.1661773 0.4930384 -0.8539896 -0.1661773 -0.4930384 0.8539896 0.1661777 0.6972751 -0.6972751 -0.1661777 -0.6972751 0.6972751 0.1661773 0.8539896 -0.4930384 -0.1661773 -0.8539896 0.4930384 0.1661764 0.952501 -0.2552006 -0.1661764 -0.952501 0.2552006 0.1661754 0.9860963 0 -0.1661754 -0.9860963 0 0.1661764 0.952501 0.2552006 -0.1661764 -0.952501 -0.2552006 0.1661773 0.8539896 0.4930384 -0.1661773 -0.8539896 -0.4930384 0.1661777 0.6972751 0.6972751 -0.1661777 -0.6972751 -0.6972751 0.1661773 0.4930384 0.8539896 -0.1661773 -0.4930384 -0.8539896 0.1661764 0.2552006 0.952501 -0.1661764 -0.2552006 -0.952501 0.1661754 0 0.9860963 -0.1661754 0 -0.9860963 0.1661764 -0.2552006 0.952501 -0.1661764 0.2552006 -0.952501</float_array>
          <technique_common>
            <accessor source="#ID4_003-mesh-normals-array" count="93" stride="3">
              <param name="X" type="float"/>
              <param name="Y" type="float"/>
              <param name="Z" type="float"/>
            </accessor>
          </technique_common>
        </source>
        <vertices id="ID4_003-mesh-vertices">
          <input semantic="POSITION" source="#ID4_003-mesh-positions"/>
        </vertices>
        <triangles material="Color_000_002-material" count="192">
          <input semantic="VERTEX" source="#ID4_003-mesh-vertices" offset="0"/>
          <input semantic="NORMAL" source="#ID4_003-mesh-normals" offset="1"/>
          <p>0 0 1 1 2 0 1 1 0 0 3 1 4 2 5 3 6 2 7 3 6 2 5 3 3 1 8 4 1 1 8 4 3 1 9 4 10 5 4 2 11 5 6 2 11 5 4 2 12 6 2 0 13 6 2 0 12 6 0 0 5 3 14 7 7 3 15 7 7 3 14 7 16 8 17 8 18 8 17 9 16 9 19 9 19 10 16 10 20 10 20 11 16 11 21 11 20 11 21 11 22 11 22 11 21 11 23 11 22 12 23 12 24 12 24 13 23 13 25 13 24 14 25 14 26 14 26 11 25 11 27 11 26 15 27 15 28 15 28 11 27 11 29 11 28 16 29 16 30 16 30 11 29 11 31 11 30 11 31 11 32 11 32 17 31 17 33 17 33 11 31 11 34 11 33 18 34 18 35 18 35 19 34 19 36 19 35 11 36 11 37 11 37 11 36 11 38 11 37 11 38 11 39 11 39 11 38 11 40 11 39 11 40 11 41 11 17 11 42 11 43 11 42 11 17 11 19 11 43 11 42 11 44 11 43 11 44 11 45 11 45 11 44 11 46 11 45 11 46 11 47 11 47 11 46 11 48 11 47 11 48 11 49 11 49 11 48 11 50 11 49 11 50 11 51 11 51 20 50 20 52 20 51 21 52 21 53 21 53 22 52 22 54 22 53 11 54 11 55 11 53 23 55 23 56 23 56 11 55 11 57 11 56 24 57 24 58 24 58 11 57 11 59 11 58 25 59 25 60 25 60 11 59 11 61 11 60 26 61 26 62 26 62 11 61 11 41 11 62 27 41 27 40 27 62 28 40 28 63 28 64 29 65 29 66 29 65 30 67 30 66 30 67 31 68 31 66 31 66 29 68 29 69 29 68 32 70 32 69 32 69 29 70 29 71 29 70 33 72 33 71 33 71 29 72 29 73 29 72 34 74 34 73 34 73 29 74 29 75 29 74 29 76 29 75 29 76 35 77 35 75 35 75 29 77 29 78 29 77 29 79 29 78 29 78 29 79 29 80 29 79 29 81 29 80 29 80 36 81 36 82 36 81 29 83 29 82 29 82 37 83 37 84 37 83 29 85 29 84 29 84 38 85 38 86 38 85 29 87 29 86 29 88 39 89 39 87 39 86 40 87 40 89 40 67 41 65 41 90 41 65 29 91 29 90 29 90 29 91 29 92 29 91 29 93 29 92 29 92 42 93 42 94 42 93 43 95 43 94 43 94 44 95 44 96 44 95 45 97 45 96 45 96 46 97 46 98 46 98 47 97 47 99 47 97 29 100 29 99 29 99 29 100 29 101 29 100 29 102 29 101 29 101 48 102 48 103 48 102 49 104 49 103 49 103 50 104 50 105 50 104 51 106 51 105 51 105 29 106 29 107 29 106 29 108 29 107 29 107 29 108 29 109 29 108 52 110 52 109 52 109 29 110 29 88 29 88 29 110 29 89 29 111 29 89 29 110 29 9 4 112 53 8 4 112 53 9 4 113 53 114 54 10 5 115 54 11 5 115 54 10 5 116 55 13 6 117 55 13 6 116 55 12 6 14 7 118 56 15 7 119 56 15 7 118 56 120 57 121 58 122 57 121 58 120 57 123 58 124 59 125 60 126 59 127 60 126 59 125 60 120 57 128 61 129 61 128 61 120 57 122 57 127 60 125 60 130 62 131 62 130 62 125 60 129 61 132 63 133 63 132 63 129 61 128 61 130 62 131 62 134 64 135 64 134 64 131 62 133 63 112 53 113 53 112 53 133 63 132 63 134 64 135 64 115 54 114 54 115 54 135 64 136 65 117 55 137 65 117 55 136 65 116 55 118 56 138 66 119 56 139 66 119 56 138 66 140 67 137 65 141 67 137 65 140 67 136 65 138 66 142 68 139 66 143 68 139 66 142 68 144 69 141 67 145 69 141 67 144 69 140 67 142 68 146 70 143 68 147 70 143 68 146 70 148 71 145 69 149 71 145 69 148 71 144 69 146 70 150 72 147 70 151 72 147 70 150 72 152 73 148 71 149 71 148 71 152 73 153 73 154 74 155 74 150 72 151 72 150 72 155 74 156 75 153 73 152 73 153 73 156 75 157 75 158 76 159 76 154 74 155 74 154 74 159 76 160 77 157 75 156 75 157 75 160 77 161 77 162 78 163 78 158 76 159 76 158 76 163 78 164 79 161 77 160 77 161 77 164 79 165 79 166 80 167 80 162 78 163 78 162 78 167 80 164 79 168 81 165 79 168 81 164 79 169 81 170 82 167 80 171 82 166 80 171 82 167 80 169 81 172 83 168 81 172 83 169 81 173 83 174 84 170 82 175 84 171 82 175 84 170 82 176 85 173 83 177 85 173 83 176 85 172 83 175 84 178 86 174 84 179 86 174 84 178 86 180 87 177 85 181 87 177 85 180 87 176 85 178 86 182 88 179 86 183 88 179 86 182 88 184 89 181 87 185 89 181 87 184 89 180 87 182 88 186 90 183 88 187 90 183 88 186 90 188 91 185 89 189 91 185 89 188 91 184 89 186 90 190 92 187 90 191 92 187 90 190 92 123 58 189 91 121 58 189 91 123 58 188 91 190 92 124 59 191 92 126 59 191 92 124 59</p>
        </triangles>
      </mesh>
    </geometry>
    <geometry id="ID12_001-mesh" name="ID12.001">
      <mesh>
        <source id="ID12_001-mesh-positions">
          <float_array id="ID12_001-mesh-positions-array" count="576">3.38844 0.8540541 0.8540541 0.4724409 0.3132701 0.8464567 0.4724409 0.5447657 0.5447657 3.38844 0.6920695 1.065157 3.38844 0.6920695 1.065157 3.38844 0.8540541 0.8540541 0.4724409 0.3132701 0.8464567 0.4724409 0.5447657 0.5447657 3.38844 1.065157 0.6920695 0.4724409 0.8464567 0.3132701 3.38844 1.065157 0.6920695 0.4724409 0.8464567 0.3132701 3.38844 0.5902417 1.310991 3.38844 0.6240888 1.32006 3.38844 0.5905512 1.574803 3.38844 0.6920695 1.065157 3.38844 0.7224159 1.082677 3.38844 0.8540541 0.8540541 3.38844 0.8788319 0.8788319 3.38844 1.065157 0.6920695 3.38844 1.082677 0.7224159 3.38844 1.310991 0.5902417 3.38844 1.32006 0.6240888 3.38844 1.574803 0.5555101 3.38844 1.574803 0.5905512 3.38844 1.838616 0.5902417 3.38844 1.829546 0.6240888 3.38844 2.066929 0.7224159 3.38844 2.08445 0.6920695 3.38844 2.270774 0.8788319 3.38844 2.295552 0.8540541 3.38844 2.42719 1.082677 3.38844 2.457537 1.065157 3.38844 2.525518 1.32006 3.38844 2.559365 1.310991 3.38844 2.559055 1.574803 3.38844 0.5902417 1.838616 3.38844 0.5555101 1.574803 3.38844 0.6240888 1.829546 3.38844 0.6920695 2.08445 3.38844 0.7224159 2.066929 3.38844 0.8540541 2.295552 3.38844 0.8788319 2.270774 3.38844 1.065157 2.457537 3.38844 1.082677 2.42719 3.38844 1.310991 2.559365 3.38844 1.32006 2.525518 3.38844 1.574803 2.594096 3.38844 1.574803 2.559055 3.38844 1.829546 2.525518 3.38844 1.838616 2.559365 3.38844 2.066929 2.42719 3.38844 2.08445 2.457537 3.38844 2.270774 2.270774 3.38844 2.295552 2.295552 3.38844 2.42719 2.066929 3.38844 2.457537 2.08445 3.38844 2.525518 1.829546 3.38844 2.559365 1.838616 3.38844 2.594096 1.574803 3.38844 2.594096 1.574803 3.38844 2.559365 1.310991 3.38844 2.559365 1.838616 3.38844 2.559055 1.574803 3.38844 2.525518 1.829546 3.38844 2.457537 2.08445 3.38844 2.42719 2.066929 3.38844 2.295552 2.295552 3.38844 2.270774 2.270774 3.38844 2.08445 2.457537 3.38844 2.066929 2.42719 3.38844 1.838616 2.559365 3.38844 1.829546 2.525518 3.38844 1.574803 2.594096 3.38844 1.574803 2.559055 3.38844 1.32006 2.525518 3.38844 1.310991 2.559365 3.38844 1.082677 2.42719 3.38844 1.065157 2.457537 3.38844 0.8788319 2.270774 3.38844 0.8540541 2.295552 3.38844 0.7224159 2.066929 3.38844 0.6920695 2.08445 3.38844 0.6240888 1.829546 3.38844 0.5902417 1.838616 3.38844 0.5905512 1.574803 3.38844 0.5902417 1.310991 3.38844 0.5555101 1.574803 3.38844 2.525518 1.32006 3.38844 2.457537 1.065157 3.38844 2.42719 1.082677 3.38844 2.295552 0.8540541 3.38844 2.270774 0.8788319 3.38844 2.08445 0.6920695 3.38844 2.066929 0.7224159 3.38844 1.838616 0.5902417 3.38844 1.829546 0.6240888 3.38844 1.574803 0.5905512 3.38844 1.574803 0.5555101 3.38844 1.32006 0.6240888 3.38844 1.310991 0.5902417 3.38844 1.082677 0.7224159 3.38844 1.065157 0.6920695 3.38844 0.8788319 0.8788319 3.38844 0.8540541 0.8540541 3.38844 0.7224159 1.082677 3.38844 0.6920695 1.065157 3.38844 0.6240888 1.32006 0.4724409 0.1677458 1.197783 3.38844 0.5902417 1.310991 3.38844 0.5902417 1.310991 0.4724409 0.1677458 1.197783 3.38844 1.310991 0.5902417 0.4724409 1.197783 0.1677458 3.38844 1.310991 0.5902417 0.4724409 1.197783 0.1677458 3.38844 0.8540541 2.295552 0.4724409 0.3132701 2.30315 3.38844 0.6920695 2.08445 0.4724409 0.5447657 2.604841 0.4724409 0.5447657 2.604841 3.38844 0.8540541 2.295552 0.4724409 0.3132701 2.30315 3.38844 0.6920695 2.08445 0.4724409 0.1677458 1.951823 3.38844 0.5902417 1.838616 0.4724409 0.1677458 1.951823 3.38844 0.5902417 1.838616 0.4724409 0.1181102 1.574803 3.38844 0.5555101 1.574803 0.4724409 0.1181102 1.574803 3.38844 0.5555101 1.574803 3.38844 1.574803 0.5555101 0.4724409 1.574803 0.1181102 3.38844 1.574803 0.5555101 0.4724409 1.574803 0.1181102 3.38844 1.838616 0.5902417 0.4724409 1.951823 0.1677458 3.38844 1.838616 0.5902417 0.4724409 1.951823 0.1677458 3.38844 2.08445 0.6920695 0.4724409 2.30315 0.3132701 3.38844 2.08445 0.6920695 0.4724409 2.30315 0.3132701 3.38844 2.295552 0.8540541 0.4724409 2.604841 0.5447657 3.38844 2.295552 0.8540541 0.4724409 2.604841 0.5447657 0.4724409 2.836336 0.8464567 3.38844 2.457537 1.065157 3.38844 2.457537 1.065157 0.4724409 2.836336 0.8464567 0.4724409 2.98186 1.197783 3.38844 2.559365 1.310991 3.38844 2.559365 1.310991 0.4724409 2.98186 1.197783 0.4724409 3.031496 1.574803 3.38844 2.594096 1.574803 3.38844 2.594096 1.574803 0.4724409 3.031496 1.574803 0.4724409 2.98186 1.951823 3.38844 2.559365 1.838616 3.38844 2.559365 1.838616 0.4724409 2.98186 1.951823 3.38844 2.457537 2.08445 0.4724409 2.836336 2.30315 0.4724409 2.836336 2.30315 3.38844 2.457537 2.08445 3.38844 2.295552 2.295552 0.4724409 2.604841 2.604841 0.4724409 2.604841 2.604841 3.38844 2.295552 2.295552 3.38844 2.08445 2.457537 0.4724409 2.30315 2.836336 3.38844 2.08445 2.457537 0.4724409 2.30315 2.836336 3.38844 1.838616 2.559365 0.4724409 1.951823 2.98186 3.38844 1.838616 2.559365 0.4724409 1.951823 2.98186 3.38844 1.574803 2.594096 0.4724409 1.574803 3.031496 3.38844 1.574803 2.594096 0.4724409 1.574803 3.031496 3.38844 1.310991 2.559365 0.4724409 1.197783 2.98186 3.38844 1.310991 2.559365 0.4724409 1.197783 2.98186 3.38844 1.065157 2.457537 0.4724409 0.8464567 2.836336 3.38844 1.065157 2.457537 0.4724409 0.8464567 2.836336</float_array>
          <technique_common>
            <accessor source="#ID12_001-mesh-positions-array" count="192" stride="3">
              <param name="X" type="float"/>
              <param name="Y" type="float"/>
              <param name="Z" type="float"/>
            </accessor>
          </technique_common>
        </source>
        <source id="ID12_001-mesh-normals">
          <float_array id="ID12_001-mesh-normals-array" count="288">0.1483231 -0.6992855 -0.6992855 0.1483213 -0.8564489 -0.4944655 -0.1483213 0.8564489 0.4944655 -0.1483231 0.6992855 0.6992855 0.1483213 -0.4944655 -0.8564489 -0.1483213 0.4944655 0.8564489 1 0 0 1 -5.84267e-6 0 1 -1.28956e-5 0 1 5.00794e-6 0 1 -5.00799e-6 0 1 -1.61193e-6 0 1 1.61193e-6 0 1 6.67722e-6 0 1 1.28954e-5 0 1 6.5052e-6 0 0.9999998 -7.29939e-4 0 1 -1.33545e-5 0 1 -6.44779e-6 0 1 3.22384e-6 0 1 4.83572e-6 0 1 4.02977e-6 0 1 1.33543e-5 0 1 1.20894e-6 0 0.9999998 7.28956e-4 0 1 -6.50532e-6 0 -1 1.30106e-5 0 -0.9999998 -7.28956e-4 0 -1 1.25199e-6 0 -1 0 0 -1 -9.18111e-6 0 -1 5.00787e-6 0 -1 3.3386e-6 0 -1 -6.4477e-6 0 -1 3.22387e-6 0 -1 4.83573e-6 0 -1 4.02983e-6 0 -1 1.33545e-5 0 -1 1.20894e-6 0 -0.9999989 0.001459836 0 -1 -1.30104e-5 0 -1 1.25199e-6 0 -1 -5.84259e-6 0 -1 -1.28954e-5 0 -1 5.00792e-6 0 -1 -5.00792e-6 0 -1 -5.73825e-7 0 -1 -1.61193e-6 0 -1 1.61193e-6 0 -1 6.67733e-6 0 -1 4.83578e-6 0 -1 7.25378e-6 0 -1 1.20895e-6 0 -1 -1.25199e-6 0 0.1483228 -0.9552479 -0.2559332 -0.1483228 0.9552479 0.2559332 0.1483228 -0.2559332 -0.9552479 -0.1483228 0.2559332 0.9552479 0.1483231 -0.6992855 0.6992855 0.1483213 -0.8564489 0.4944655 -0.1483231 0.6992855 -0.6992855 -0.1483213 0.8564489 -0.4944655 0.1483228 -0.9552479 0.2559332 -0.1483228 0.9552479 -0.2559332 0.1483225 -0.9889391 0 -0.1483225 0.9889391 0 0.1483225 0 -0.9889391 -0.1483225 0 0.9889391 0.1483228 0.2559332 -0.9552479 -0.1483228 -0.2559332 0.9552479 0.1483213 0.4944655 -0.8564489 -0.1483213 -0.4944655 0.8564489 0.1483231 0.6992855 -0.6992855 -0.1483231 -0.6992855 0.6992855 0.1483213 0.8564489 -0.4944655 -0.1483213 -0.8564489 0.4944655 0.1483228 0.9552479 -0.2559332 -0.1483228 -0.9552479 0.2559332 0.1483225 0.9889391 0 -0.1483225 -0.9889391 0 0.1483228 0.9552479 0.2559332 -0.1483228 -0.9552479 -0.2559332 0.1483213 0.8564489 0.4944655 -0.1483213 -0.8564489 -0.4944655 0.1483231 0.6992855 0.6992855 -0.1483231 -0.6992855 -0.6992855 0.1483213 0.4944655 0.8564489 -0.1483213 -0.4944655 -0.8564489 0.1483228 0.2559332 0.9552479 -0.1483228 -0.2559332 -0.9552479 0.1483225 0 0.9889391 -0.1483225 0 -0.9889391 0.1483228 -0.2559332 0.9552479 -0.1483228 0.2559332 -0.9552479 0.1483213 -0.4944655 0.8564489 -0.1483213 0.4944655 -0.8564489</float_array>
          <technique_common>
            <accessor source="#ID12_001-mesh-normals-array" count="96" stride="3">
              <param name="X" type="float"/>
              <param name="Y" type="float"/>
              <param name="Z" type="float"/>
            </accessor>
          </technique_common>
        </source>
        <vertices id="ID12_001-mesh-vertices">
          <input semantic="POSITION" source="#ID12_001-mesh-positions"/>
        </vertices>
        <triangles material="Color_000_002-material" count="192">
          <input semantic="VERTEX" source="#ID12_001-mesh-vertices" offset="0"/>
          <input semantic="NORMAL" source="#ID12_001-mesh-normals" offset="1"/>
          <p>0 0 1 1 2 0 1 1 0 0 3 1 4 2 5 3 6 2 7 3 6 2 5 3 8 4 2 0 9 4 2 0 8 4 0 0 5 3 10 5 7 3 11 5 7 3 10 5 12 6 13 6 14 6 13 6 12 6 15 6 13 7 15 7 16 7 16 8 15 8 17 8 16 9 17 9 18 9 18 6 17 6 19 6 18 6 19 6 20 6 20 6 19 6 21 6 20 10 21 10 22 10 22 11 21 11 23 11 22 6 23 6 24 6 24 12 23 12 25 12 24 6 25 6 26 6 26 13 25 13 27 13 27 6 25 6 28 6 27 6 28 6 29 6 29 6 28 6 30 6 29 6 30 6 31 6 31 14 30 14 32 14 31 6 32 6 33 6 33 6 32 6 34 6 33 6 34 6 35 6 12 15 36 15 37 15 36 16 12 16 14 16 36 6 14 6 38 6 36 6 38 6 39 6 39 17 38 17 40 17 39 6 40 6 41 6 41 6 40 6 42 6 41 6 42 6 43 6 43 6 42 6 44 6 43 18 44 18 45 18 45 6 44 6 46 6 45 6 46 6 47 6 47 6 46 6 48 6 47 6 48 6 49 6 47 6 49 6 50 6 50 6 49 6 51 6 50 19 51 19 52 19 52 6 51 6 53 6 52 20 53 20 54 20 54 6 53 6 55 6 54 21 55 21 56 21 56 22 55 22 57 22 56 23 57 23 58 23 58 6 57 6 35 6 58 24 35 24 34 24 58 25 34 25 59 25 60 26 61 26 62 26 61 27 63 27 62 27 63 28 64 28 62 28 62 29 64 29 65 29 64 30 66 30 65 30 65 29 66 29 67 29 66 31 68 31 67 31 67 29 68 29 69 29 68 32 70 32 69 32 69 33 70 33 71 33 70 29 72 29 71 29 71 29 72 29 73 29 72 29 74 29 73 29 74 29 75 29 73 29 73 29 75 29 76 29 75 29 77 29 76 29 76 34 77 34 78 34 77 29 79 29 78 29 78 35 79 35 80 35 79 29 81 29 80 29 80 36 81 36 82 36 81 37 83 37 82 37 82 38 83 38 84 38 83 29 85 29 84 29 85 39 86 39 84 39 87 40 84 40 86 40 63 41 61 41 88 41 61 29 89 29 88 29 88 42 89 42 90 42 89 43 91 43 90 43 90 44 91 44 92 44 91 29 93 29 92 29 92 29 93 29 94 29 93 29 95 29 94 29 94 45 95 45 96 45 96 46 95 46 97 46 95 47 98 47 97 47 97 29 98 29 99 29 98 48 100 48 99 48 99 49 100 49 101 49 100 29 102 29 101 29 101 29 102 29 103 29 102 50 104 50 103 50 103 29 104 29 105 29 104 51 106 51 105 51 105 29 106 29 107 29 106 52 86 52 107 52 85 53 107 53 86 53 3 1 108 54 1 1 108 54 3 1 109 54 110 55 4 2 111 55 6 2 111 55 4 2 112 56 9 4 113 56 9 4 112 56 8 4 10 5 114 57 11 5 115 57 11 5 114 57 116 58 117 59 118 59 117 59 116 58 119 58 120 60 121 60 122 61 123 61 122 61 121 60 118 59 124 62 125 62 124 62 118 59 117 59 122 61 123 61 126 63 127 63 126 63 123 61 125 62 128 64 129 64 128 64 125 62 124 62 126 63 127 63 130 65 131 65 130 65 127 63 109 54 128 64 108 54 128 64 109 54 129 64 131 65 110 55 130 65 111 55 130 65 110 55 132 66 113 56 133 66 113 56 132 66 112 56 114 57 134 67 115 57 135 67 115 57 134 67 136 68 133 66 137 68 133 66 136 68 132 66 134 67 138 69 135 67 139 69 135 67 138 69 140 70 137 68 141 70 137 68 140 70 136 68 138 69 142 71 139 69 143 71 139 69 142 71 144 72 141 70 145 72 141 70 144 72 140 70 142 71 146 73 143 71 147 73 143 71 146 73 148 74 144 72 145 72 144 72 148 74 149 74 150 75 151 75 146 73 147 73 146 73 151 75 152 76 149 74 148 74 149 74 152 76 153 76 154 77 155 77 150 75 151 75 150 75 155 77 156 78 153 76 152 76 153 76 156 78 157 78 158 79 159 79 154 77 155 77 154 77 159 79 160 80 157 78 156 78 157 78 160 80 161 80 162 81 163 81 158 79 159 79 158 79 163 81 160 80 164 82 161 80 164 82 160 80 165 82 166 83 163 81 167 83 162 81 167 83 163 81 165 82 168 84 164 82 168 84 165 82 169 84 170 85 166 83 171 85 167 83 171 85 166 83 172 86 169 84 173 86 169 84 172 86 168 84 171 85 174 87 170 85 175 87 170 85 174 87 176 88 173 86 177 88 173 86 176 88 172 86 174 87 178 89 175 87 179 89 175 87 178 89 180 90 177 88 181 90 177 88 180 90 176 88 178 89 182 91 179 89 183 91 179 89 182 91 184 92 181 90 185 92 181 90 184 92 180 90 182 91 186 93 183 91 187 93 183 91 186 93 188 94 185 92 189 94 185 92 188 94 184 92 186 93 190 95 187 93 191 95 187 93 190 95 116 58 189 94 119 58 189 94 116 58 188 94 190 95 121 60 191 95 120 60 191 95 121 60</p>
        </triangles>
      </mesh>
    </geometry>
    <geometry id="ID18_001-mesh" name="ID18.001">
      <mesh>
        <source id="ID18_001-mesh-positions">
          <float_array id="ID18_001-mesh-positions-array" count="864">3.622047 2.358999 2.027559 3.582677 2.44946 1.809167 3.622047 2.44946 1.809167 3.582677 2.358999 2.027559 3.582677 2.358999 2.027559 3.622047 2.358999 2.027559 3.582677 2.44946 1.809167 3.622047 2.44946 1.809167 3.582677 2.480315 1.574803 3.622047 2.480315 1.574803 3.582677 2.480315 1.574803 3.622047 2.480315 1.574803 3.622047 2.215097 2.215097 3.582677 2.215097 2.215097 3.582677 2.215097 2.215097 3.622047 2.215097 2.215097 3.556592 1.669875 1.600277 3.582677 2.358999 2.027559 3.556592 1.660042 1.624016 3.582677 2.44946 1.809167 3.582677 2.44946 1.809167 3.556592 1.669875 1.600277 3.582677 2.358999 2.027559 3.556592 1.660042 1.624016 3.582677 2.44946 1.340439 3.622047 2.44946 1.340439 3.582677 2.44946 1.340439 3.622047 2.44946 1.340439 3.556592 1.673228 1.574803 3.582677 2.480315 1.574803 3.582677 2.480315 1.574803 3.556592 1.673228 1.574803 3.582677 2.027559 2.358999 3.622047 2.027559 2.358999 3.622047 2.027559 2.358999 3.582677 2.027559 2.358999 3.582677 2.215097 2.215097 3.556592 1.6444 1.6444 3.582677 2.215097 2.215097 3.556592 1.6444 1.6444 3.556592 1.669875 1.600277 3.556592 1.660042 1.624016 3.602362 1.574803 1.574803 3.602362 1.574803 1.574803 3.556592 1.660042 1.624016 3.556592 1.669875 1.600277 3.582677 2.358999 1.122047 3.622047 2.358999 1.122047 3.582677 2.358999 1.122047 3.622047 2.358999 1.122047 3.582677 2.44946 1.340439 3.556592 1.669875 1.549329 3.582677 2.44946 1.340439 3.556592 1.669875 1.549329 3.556592 1.673228 1.574803 3.602362 1.574803 1.574803 3.602362 1.574803 1.574803 3.556592 1.673228 1.574803 3.582677 1.809167 2.44946 3.622047 1.809167 2.44946 3.622047 1.809167 2.44946 3.582677 1.809167 2.44946 3.582677 2.027559 2.358999 3.556592 1.624016 1.660042 3.582677 2.027559 2.358999 3.556592 1.624016 1.660042 3.556592 1.6444 1.6444 3.602362 1.574803 1.574803 3.602362 1.574803 1.574803 3.556592 1.6444 1.6444 3.582677 2.215097 0.9345096 3.622047 2.215097 0.9345096 3.582677 2.215097 0.9345096 3.622047 2.215097 0.9345096 3.582677 2.358999 1.122047 3.556592 1.660042 1.525591 3.582677 2.358999 1.122047 3.556592 1.660042 1.525591 3.602362 1.574803 1.574803 3.556592 1.669875 1.549329 3.556592 1.669875 1.549329 3.602362 1.574803 1.574803 3.582677 1.574803 2.480315 3.622047 1.574803 2.480315 3.622047 1.574803 2.480315 3.582677 1.574803 2.480315 3.582677 1.809167 2.44946 3.556592 1.600277 1.669875 3.582677 1.809167 2.44946 3.556592 1.600277 1.669875 3.556592 1.624016 1.660042 3.602362 1.574803 1.574803 3.602362 1.574803 1.574803 3.556592 1.624016 1.660042 3.622047 2.027559 0.7906069 3.582677 2.027559 0.7906069 3.622047 2.027559 0.7906069 3.582677 2.027559 0.7906069 3.582677 2.215097 0.9345096 3.556592 1.6444 1.505206 3.582677 2.215097 0.9345096 3.556592 1.6444 1.505206 3.602362 1.574803 1.574803 3.556592 1.660042 1.525591 3.556592 1.660042 1.525591 3.602362 1.574803 1.574803 3.582677 1.340439 2.44946 3.622047 1.340439 2.44946 3.622047 1.340439 2.44946 3.582677 1.340439 2.44946 3.582677 1.574803 2.480315 3.556592 1.574803 1.673228 3.582677 1.574803 2.480315 3.556592 1.574803 1.673228 3.556592 1.600277 1.669875 3.602362 1.574803 1.574803 3.602362 1.574803 1.574803 3.556592 1.600277 1.669875 3.622047 1.809167 0.7001459 3.582677 1.809167 0.7001459 3.622047 1.809167 0.7001459 3.582677 1.809167 0.7001459 3.582677 2.027559 0.7906069 3.556592 1.624016 1.489564 3.582677 2.027559 0.7906069 3.556592 1.624016 1.489564 3.602362 1.574803 1.574803 3.556592 1.6444 1.505206 3.556592 1.6444 1.505206 3.602362 1.574803 1.574803 3.582677 1.122047 2.358999 3.622047 1.122047 2.358999 3.622047 1.122047 2.358999 3.582677 1.122047 2.358999 3.556592 1.549329 1.669875 3.582677 1.340439 2.44946 3.556592 1.549329 1.669875 3.582677 1.340439 2.44946 3.556592 1.574803 1.673228 3.602362 1.574803 1.574803 3.602362 1.574803 1.574803 3.556592 1.574803 1.673228 3.622047 1.574803 0.6692913 3.582677 1.574803 0.6692913 3.622047 1.574803 0.6692913 3.582677 1.574803 0.6692913 3.582677 1.809167 0.7001459 3.556592 1.600277 1.479732 3.582677 1.809167 0.7001459 3.556592 1.600277 1.479732 3.602362 1.574803 1.574803 3.556592 1.624016 1.489564 3.556592 1.624016 1.489564 3.602362 1.574803 1.574803 3.582677 0.9345096 2.215097 3.622047 0.9345096 2.215097 3.622047 0.9345096 2.215097 3.582677 0.9345096 2.215097 3.556592 1.525591 1.660042 3.582677 1.122047 2.358999 3.556592 1.525591 1.660042 3.582677 1.122047 2.358999 3.602362 1.574803 1.574803 3.556592 1.549329 1.669875 3.556592 1.549329 1.669875 3.602362 1.574803 1.574803 3.622047 1.340439 0.7001459 3.582677 1.340439 0.7001459 3.622047 1.340439 0.7001459 3.582677 1.340439 0.7001459 3.556592 1.574803 1.476378 3.582677 1.574803 0.6692913 3.556592 1.574803 1.476378 3.582677 1.574803 0.6692913 3.602362 1.574803 1.574803 3.556592 1.600277 1.479732 3.556592 1.600277 1.479732 3.602362 1.574803 1.574803 3.622047 0.7906069 2.027559 3.582677 0.7906069 2.027559 3.622047 0.7906069 2.027559 3.582677 0.7906069 2.027559 3.556592 1.505206 1.6444 3.582677 0.9345096 2.215097 3.556592 1.505206 1.6444 3.582677 0.9345096 2.215097 3.602362 1.574803 1.574803 3.556592 1.525591 1.660042 3.556592 1.525591 1.660042 3.602362 1.574803 1.574803 3.622047 1.122047 0.7906069 3.582677 1.122047 0.7906069 3.622047 1.122047 0.7906069 3.582677 1.122047 0.7906069 3.556592 1.549329 1.479732 3.582677 1.340439 0.7001459 3.556592 1.549329 1.479732 3.582677 1.340439 0.7001459 3.602362 1.574803 1.574803 3.556592 1.574803 1.476378 3.556592 1.574803 1.476378 3.602362 1.574803 1.574803 3.622047 0.7001459 1.809167 3.582677 0.7001459 1.809167 3.622047 0.7001459 1.809167 3.582677 0.7001459 1.809167 3.556592 1.489564 1.624016 3.582677 0.7906069 2.027559 3.556592 1.489564 1.624016 3.582677 0.7906069 2.027559 3.602362 1.574803 1.574803 3.556592 1.505206 1.6444 3.556592 1.505206 1.6444 3.602362 1.574803 1.574803 3.622047 0.9345096 0.9345096 3.582677 0.9345096 0.9345096 3.622047 0.9345096 0.9345096 3.582677 0.9345096 0.9345096 3.556592 1.525591 1.489564 3.582677 1.122047 0.7906069 3.556592 1.525591 1.489564 3.582677 1.122047 0.7906069 3.602362 1.574803 1.574803 3.556592 1.549329 1.479732 3.556592 1.549329 1.479732 3.602362 1.574803 1.574803 3.622047 0.6692913 1.574803 3.582677 0.6692913 1.574803 3.622047 0.6692913 1.574803 3.582677 0.6692913 1.574803 3.556592 1.479732 1.600277 3.582677 0.7001459 1.809167 3.556592 1.479732 1.600277 3.582677 0.7001459 1.809167 3.602362 1.574803 1.574803 3.556592 1.489564 1.624016 3.556592 1.489564 1.624016 3.602362 1.574803 1.574803 3.582677 0.7906069 1.122047 3.622047 0.7906069 1.122047 3.622047 0.7906069 1.122047 3.582677 0.7906069 1.122047 3.556592 1.505206 1.505206 3.582677 0.9345096 0.9345096 3.556592 1.505206 1.505206 3.582677 0.9345096 0.9345096 3.602362 1.574803 1.574803 3.556592 1.525591 1.489564 3.556592 1.525591 1.489564 3.602362 1.574803 1.574803 3.622047 0.7001459 1.340439 3.582677 0.7001459 1.340439 3.622047 0.7001459 1.340439 3.582677 0.7001459 1.340439 3.556592 1.476378 1.574803 3.582677 0.6692913 1.574803 3.556592 1.476378 1.574803 3.582677 0.6692913 1.574803 3.602362 1.574803 1.574803 3.556592 1.479732 1.600277 3.556592 1.479732 1.600277 3.602362 1.574803 1.574803 3.556592 1.489564 1.525591 3.582677 0.7906069 1.122047 3.556592 1.489564 1.525591 3.582677 0.7906069 1.122047 3.602362 1.574803 1.574803 3.556592 1.505206 1.505206 3.556592 1.505206 1.505206 3.602362 1.574803 1.574803 3.582677 0.7001459 1.340439 3.556592 1.479732 1.549329 3.556592 1.479732 1.549329 3.582677 0.7001459 1.340439 3.602362 1.574803 1.574803 3.556592 1.476378 1.574803 3.556592 1.476378 1.574803 3.602362 1.574803 1.574803 3.602362 1.574803 1.574803 3.556592 1.489564 1.525591 3.556592 1.489564 1.525591 3.602362 1.574803 1.574803 3.602362 1.574803 1.574803 3.556592 1.479732 1.549329 3.556592 1.479732 1.549329 3.602362 1.574803 1.574803 3.602362 1.574803 1.574803 3.602362 1.574803 1.574803</float_array>
          <technique_common>
            <accessor source="#ID18_001-mesh-positions-array" count="288" stride="3">
              <param name="X" type="float"/>
              <param name="Y" type="float"/>
              <param name="Z" type="float"/>
            </accessor>
          </technique_common>
        </source>
        <source id="ID18_001-mesh-normals">
          <float_array id="ID18_001-mesh-normals-array" count="510">0 -0.8660317 -0.4999893 0 -0.9659304 -0.2588022 0 0.8660317 0.4999893 0 0.9659304 0.2588022 0 -1 0 0 1 0 0 -0.7071068 -0.7071068 0 0.7071068 0.7071068 0.9994788 -0.03119075 -0.008331775 0.9994788 -0.02795571 -0.01614469 -0.9994788 0.03119075 0.008331775 -0.9994788 0.02795571 0.01614469 0 -0.9659304 0.2588022 0 0.9659304 -0.2588022 0.9994786 -0.03228944 0 -0.9994786 0.03228944 0 0 -0.4999893 -0.8660317 0 0.4999893 0.8660317 0.9994788 -0.02282845 -0.02282845 -0.9994788 0.02282845 0.02282845 0.9067621 0.4072815 0.1091068 0.9067571 0.3651627 0.2108269 0.9053604 0.3923279 0.1624857 -0.9053658 -0.392317 -0.1624812 -0.9067571 -0.3651627 -0.2108269 -0.9067621 -0.4072815 -0.1091068 0 -0.8660317 0.4999893 0 0.8660317 -0.4999893 0.9994788 -0.03119075 0.008331775 -0.9994788 0.03119075 -0.008331775 0.9067569 0.4216538 0 0.9053602 0.4210161 0.0553928 -0.9053602 -0.4210161 -0.0553928 -0.9067569 -0.4216538 0 0 -0.2588022 -0.9659304 0 0.2588022 0.9659304 0.9994788 -0.01614469 -0.02795571 -0.9994788 0.01614469 0.02795571 0.9067634 0.2981445 0.2981445 0.9053678 0.3368768 0.2585021 -0.9053678 -0.3368768 -0.2585021 -0.9067634 -0.2981445 -0.2981445 0 -0.7071068 0.7071068 0 0.7071068 -0.7071068 0.9994788 -0.02795571 0.01614469 -0.9994788 0.02795571 -0.01614469 0.9053587 0.4210155 -0.05542325 0.9067621 0.4072815 -0.1091068 -0.9067621 -0.4072815 0.1091068 -0.9053587 -0.4210155 0.05542325 0 0 -1 0 0 1 0.9994788 -0.008331775 -0.03119075 -0.9994788 0.008331775 0.03119075 0.9067571 0.2108269 0.3651627 0.9053606 0.2585306 0.3368741 -0.9053678 -0.2585021 -0.3368768 -0.9067571 -0.2108269 -0.3651627 0 -0.4999893 0.8660317 0 0.4999893 -0.8660317 0.9994788 -0.02282845 0.02282845 -0.9994788 0.02282845 -0.02282845 0.9053767 0.3922913 -0.1624831 0.9067571 0.3651627 -0.2108269 -0.9067571 -0.3651627 0.2108269 -0.9053767 -0.3922913 0.1624831 0 0.2588022 -0.9659304 0 -0.2588022 0.9659304 0.9994786 0 -0.03228944 -0.9994786 0 0.03228944 0.9067621 0.1091068 0.4072815 0.9053604 0.1624857 0.3923279 -0.9053604 -0.1624857 -0.3923279 -0.9067621 -0.1091068 -0.4072815 0.9994788 -0.01614469 0.02795571 -0.9994788 0.01614469 -0.02795571 0.9053678 0.3368768 -0.2585021 0.9067551 0.2981723 -0.2981418 -0.9067634 -0.2981445 0.2981445 -0.9053678 -0.3368768 0.2585021 0.9994788 0.008331775 -0.03119075 -0.9994788 -0.008331775 0.03119075 0.9067569 0 0.4216538 0.9053602 0.0553928 0.4210161 -0.9053602 -0.0553928 -0.4210161 -0.9067569 0 -0.4216538 0.9994788 -0.008331775 0.03119075 -0.9994788 0.008331775 -0.03119075 0.9053606 0.2585306 -0.3368741 0.9067571 0.2108269 -0.3651627 -0.9067629 -0.2107977 0.365165 -0.9053678 -0.2585021 0.3368768 0.9994788 0.01614469 -0.02795571 -0.9994788 -0.01614469 0.02795571 0.9053602 -0.0553928 0.4210161 0.9067621 -0.1091068 0.4072815 -0.9067621 0.1091068 -0.4072815 -0.9053602 0.0553928 -0.4210161 0.9994786 0 0.03228944 -0.9994786 0 -0.03228944 0.9053649 0.162456 -0.3923298 0.9067621 0.1091068 -0.4072815 -0.9067621 -0.1091068 0.4072815 -0.9053649 -0.162456 0.3923298 0.9994788 0.02282845 -0.02282845 -0.9994788 -0.02282845 0.02282845 0.9053604 -0.1624857 0.3923279 0.9067571 -0.2108269 0.3651627 -0.9067571 0.2108269 -0.3651627 -0.9053604 0.1624857 -0.3923279 0.9994788 0.008331775 0.03119075 0.9994786 0.008362293 0.03119075 -0.9994788 -0.008331775 -0.03119075 -0.9994786 -0.008362293 -0.03119075 0.9053587 0.05542325 -0.4210155 0.9067569 0 -0.4216538 -0.9067569 0 0.4216538 -0.9053587 -0.05542325 0.4210155 0.9994788 0.02795571 -0.01614469 -0.9994788 -0.02795571 0.01614469 0.9053678 -0.2585021 0.3368768 0.9067634 -0.2981445 0.2981445 -0.9067634 0.2981445 -0.2981445 -0.9053678 0.2585021 -0.3368768 0.9994788 0.01614469 0.02795571 -0.9994788 -0.01614469 -0.02795571 0.9053587 -0.05542325 -0.4210155 0.9067621 -0.1091068 -0.4072815 -0.9067621 0.1091068 0.4072815 -0.9053587 0.05542325 0.4210155 0.9994788 0.03119075 -0.008331775 -0.9994788 -0.03119075 0.008331775 0.9053678 -0.3368768 0.2585021 0.9067571 -0.3651627 0.2108269 -0.9067571 0.3651627 -0.2108269 -0.9053678 0.3368768 -0.2585021 0.9994788 0.02282845 0.02282845 -0.9994788 -0.02282845 -0.02282845 0.9053604 -0.1624857 -0.3923279 0.9067629 -0.2107977 -0.365165 -0.9067629 0.2107977 0.365165 -0.9053649 0.162456 0.3923298 0.9994786 0.03228944 0 -0.9994786 -0.03228944 0 0.9053604 -0.3923279 0.1624857 0.9067621 -0.4072815 0.1091068 -0.9067621 0.4072815 -0.1091068 -0.9053604 0.3923279 -0.1624857 0.9994788 0.02795571 0.01614469 -0.9994788 -0.02795571 -0.01614469 0.9053678 -0.2585021 -0.3368768 0.9067634 -0.2981445 -0.2981445 -0.9067634 0.2981445 0.2981445 -0.9053678 0.2585021 0.3368768 0.9994788 0.03119075 0.008331775 -0.9994788 -0.03119075 -0.008331775 0.9053587 -0.4210155 0.05542325 0.9067569 -0.4216538 0 -0.9067569 0.4216538 0 -0.9053587 0.4210155 -0.05542325 0.9053585 -0.3369038 -0.2584995 0.9067571 -0.3651627 -0.2108269 -0.9067571 0.3651627 0.2108269 -0.9053678 0.3368768 0.2585021 0.9053587 -0.4210155 -0.05542325 0.9067621 -0.4072815 -0.1091068 -0.9067621 0.4072815 0.1091068 -0.9053587 0.4210155 0.05542325 0.9053604 -0.3923279 -0.1624857 -0.9053658 0.392317 0.1624812</float_array>
          <technique_common>
            <accessor source="#ID18_001-mesh-normals-array" count="170" stride="3">
              <param name="X" type="float"/>
              <param name="Y" type="float"/>
              <param name="Z" type="float"/>
            </accessor>
          </technique_common>
        </source>
        <vertices id="ID18_001-mesh-vertices">
          <input semantic="POSITION" source="#ID18_001-mesh-positions"/>
        </vertices>
        <triangles material="Color_000_002-material" count="240">
          <input semantic="VERTEX" source="#ID18_001-mesh-vertices" offset="0"/>
          <input semantic="NORMAL" source="#ID18_001-mesh-normals" offset="1"/>
          <p>0 0 1 1 2 1 1 1 0 0 3 0 4 2 5 2 6 3 7 3 6 3 5 2 2 1 8 4 9 4 8 4 2 1 1 1 6 3 7 3 10 5 11 5 10 5 7 3 12 6 3 0 0 0 3 0 12 6 13 6 14 7 15 7 4 2 5 2 4 2 15 7 16 8 17 9 18 9 17 9 16 8 19 8 20 10 21 10 22 11 23 11 22 11 21 10 9 4 24 12 25 12 24 12 9 4 8 4 10 5 11 5 26 13 27 13 26 13 11 5 28 14 19 8 16 8 19 8 28 14 29 14 30 15 31 15 20 10 21 10 20 10 31 15 12 6 32 16 13 6 32 16 12 6 33 16 34 17 15 7 35 17 14 7 35 17 15 7 18 9 36 18 37 18 36 18 18 9 17 9 22 11 23 11 38 19 39 19 38 19 23 11 40 20 41 21 42 22 43 23 44 24 45 25 25 12 46 26 47 26 46 26 25 12 24 12 26 13 27 13 48 27 49 27 48 27 27 13 50 28 28 14 51 28 28 14 50 28 29 14 30 15 52 29 31 15 53 29 31 15 52 29 54 30 40 20 55 31 56 32 45 25 57 33 33 16 58 34 32 16 58 34 33 16 59 34 60 35 34 17 61 35 35 17 61 35 34 17 37 18 62 36 63 36 62 36 37 18 36 18 38 19 39 19 64 37 65 37 64 37 39 19 41 21 66 38 67 39 68 40 69 41 44 24 47 26 70 42 71 42 70 42 47 26 46 26 48 27 49 27 72 43 73 43 72 43 49 27 74 44 51 28 75 44 51 28 74 44 50 28 52 29 76 45 53 29 77 45 53 29 76 45 54 30 78 46 79 47 80 48 81 49 57 33 59 34 82 50 58 34 82 50 59 34 83 50 84 51 60 35 85 51 61 35 85 51 60 35 63 36 86 52 87 52 86 52 63 36 62 36 64 37 65 37 88 53 89 53 88 53 65 37 66 38 90 54 91 55 92 56 93 57 69 41 94 58 70 42 95 58 70 42 94 58 71 42 73 43 96 59 72 43 97 59 72 43 96 59 98 60 75 44 99 60 75 44 98 60 74 44 76 45 100 61 77 45 101 61 77 45 100 61 79 47 102 62 103 63 104 64 105 65 80 48 83 50 106 66 82 50 106 66 83 50 107 66 108 67 84 51 109 67 85 51 109 67 84 51 87 52 110 68 111 68 110 68 87 52 86 52 88 53 89 53 112 69 113 69 112 69 89 53 90 54 114 70 115 71 116 72 117 73 93 57 118 67 95 58 119 67 95 58 118 67 94 58 96 59 120 66 97 59 121 66 97 59 120 66 122 74 99 60 123 74 99 60 122 74 98 60 100 61 124 75 101 61 125 75 101 61 124 75 103 63 126 76 127 77 128 78 129 79 104 64 107 66 130 59 106 66 130 59 107 66 131 59 132 58 108 67 133 58 109 67 133 58 108 67 134 80 110 68 135 80 110 68 134 80 111 68 113 69 136 81 112 69 137 81 112 69 136 81 114 70 138 82 139 83 140 84 141 85 117 73 142 51 119 67 143 51 119 67 142 51 118 67 120 66 144 50 121 66 145 50 121 66 144 50 146 86 123 74 147 86 123 74 146 86 122 74 124 75 148 87 125 75 149 87 125 75 148 87 127 77 150 88 151 89 152 90 153 91 128 78 131 59 154 43 130 59 154 43 131 59 155 43 156 42 132 58 157 42 133 58 157 42 132 58 158 92 135 80 159 92 135 80 158 92 134 80 136 81 160 93 137 81 161 93 137 81 160 93 162 94 138 82 163 95 164 96 141 85 165 97 166 35 143 51 167 35 143 51 166 35 142 51 144 50 168 34 145 50 169 34 145 50 168 34 146 86 170 98 171 98 170 98 146 86 147 86 149 87 148 87 172 99 173 99 172 99 148 87 151 89 174 100 175 101 176 102 177 103 152 90 154 43 178 27 179 27 178 27 154 43 155 43 156 42 157 42 180 26 181 26 180 26 157 42 182 104 159 92 183 104 159 92 182 104 158 92 160 93 184 105 161 93 185 105 161 93 184 105 186 106 163 95 187 107 188 108 164 96 189 109 190 17 167 35 191 17 167 35 190 17 166 35 168 34 192 16 169 34 193 16 169 34 192 16 171 98 194 110 195 111 194 110 171 98 170 98 172 99 173 99 196 112 197 113 196 112 173 99 175 101 198 114 199 115 200 116 201 117 176 102 179 27 202 13 203 13 202 13 179 27 178 27 180 26 181 26 204 12 205 12 204 12 181 26 206 118 183 104 207 118 183 104 206 118 182 104 184 105 208 119 185 105 209 119 185 105 208 119 210 120 187 107 211 121 212 122 188 108 213 123 214 7 191 17 215 7 191 17 214 7 190 17 192 16 216 6 193 16 217 6 193 16 216 6 195 111 218 124 219 124 218 124 195 111 194 110 196 112 197 113 220 125 221 125 220 125 197 113 199 115 222 126 223 127 224 128 225 129 200 116 203 13 226 5 227 5 226 5 203 13 202 13 204 12 205 12 228 4 229 4 228 4 205 12 230 130 207 118 231 130 207 118 230 130 206 118 208 119 232 131 209 119 233 131 209 119 232 131 234 132 211 121 235 133 236 134 212 122 237 135 238 2 214 7 215 7 214 7 238 2 239 2 240 0 241 0 216 6 217 6 216 6 241 0 219 124 242 136 243 136 242 136 219 124 218 124 220 125 221 125 244 137 245 137 244 137 221 125 246 138 247 139 223 127 224 128 248 140 249 141 227 5 250 3 251 3 250 3 227 5 226 5 228 4 229 4 252 1 253 1 252 1 229 4 254 142 231 130 255 142 231 130 254 142 230 130 232 131 256 143 233 131 257 143 233 131 256 143 258 144 235 133 259 145 260 146 236 134 261 147 251 3 239 2 238 2 239 2 251 3 250 3 252 1 253 1 240 0 241 0 240 0 253 1 243 136 262 148 263 148 262 148 243 136 242 136 244 137 245 137 264 149 265 149 264 149 245 137 266 150 267 151 247 139 248 140 268 152 269 153 270 154 254 142 255 142 254 142 270 154 271 154 272 155 273 155 256 143 257 143 256 143 273 155 274 156 259 145 275 157 276 158 260 146 277 159 263 148 271 154 270 154 271 154 263 148 262 148 264 149 265 149 272 155 273 155 272 155 265 149 278 160 279 161 267 151 268 152 280 162 281 163 282 164 275 157 283 165 284 166 276 158 285 167 286 168 283 165 279 161 280 162 284 166 287 169</p>
        </triangles>
      </mesh>
    </geometry>
    <geometry id="ID24-mesh" name="ID24">
      <mesh>
        <source id="ID24-mesh-positions">
          <float_array id="ID24-mesh-positions-array" count="288">0 2.938623 2.362205 0.4724409 2.632679 2.632679 0.4724409 2.870432 2.322835 0 2.688357 2.688357 0 2.688357 2.688357 0 2.938623 2.362205 0.4724409 2.632679 2.632679 0.4724409 2.870432 2.322835 0 3.095946 1.982392 0.4724409 3.019889 1.962013 0 3.095946 1.982392 0.4724409 3.019889 1.962013 0.4724409 2.322835 2.870432 0 2.362205 2.938623 0.4724409 2.322835 2.870432 0 2.362205 2.938623 0.4724409 3.070866 1.574803 0 3.149606 1.574803 0.4724409 3.070866 1.574803 0 3.149606 1.574803 0.4724409 1.962013 3.019889 0 1.982392 3.095946 0.4724409 1.962013 3.019889 0 1.982392 3.095946 0.4724409 3.019889 1.187594 0 3.095946 1.167214 0.4724409 3.019889 1.187594 0 3.095946 1.167214 0.4724409 1.574803 3.070866 0 1.574803 3.149606 0.4724409 1.574803 3.070866 0 1.574803 3.149606 0.4724409 2.870432 0.8267717 0 2.938623 0.7874016 0.4724409 2.870432 0.8267717 0 2.938623 0.7874016 0.4724409 1.187594 3.019889 0 1.167214 3.095946 0.4724409 1.187594 3.019889 0 1.167214 3.095946 0.4724409 2.632679 0.5169269 0 2.688357 0.4612492 0.4724409 2.632679 0.5169269 0 2.688357 0.4612492 0.4724409 0.8267717 2.870432 0 0.7874016 2.938623 0.4724409 0.8267717 2.870432 0 0.7874016 2.938623 0 2.362205 0.2109836 0.4724409 2.322835 0.2791746 0.4724409 2.322835 0.2791746 0 2.362205 0.2109836 0.4724409 0.5169269 2.632679 0 0.4612492 2.688357 0.4724409 0.5169269 2.632679 0 0.4612492 2.688357 0 1.982392 0.05366009 0.4724409 1.962013 0.1297173 0.4724409 1.962013 0.1297173 0 1.982392 0.05366009 0 0.2109836 2.362205 0.4724409 0.2791746 2.322835 0 0.2109836 2.362205 0.4724409 0.2791746 2.322835 0 1.574803 0 0.4724409 1.574803 0.07874011 0.4724409 1.574803 0.07874011 0 1.574803 0 0 0.05366009 1.982392 0.4724409 0.1297173 1.962013 0 0.05366009 1.982392 0.4724409 0.1297173 1.962013 0 1.167214 0.05366009 0.4724409 1.187594 0.1297173 0.4724409 1.187594 0.1297173 0 1.167214 0.05366009 0 0 1.574803 0.4724409 0.07874011 1.574803 0 0 1.574803 0.4724409 0.07874011 1.574803 0 0.7874016 0.2109836 0.4724409 0.8267717 0.2791746 0.4724409 0.8267717 0.2791746 0 0.7874016 0.2109836 0.4724409 0.1297173 1.187594 0 0.05366009 1.167214 0.4724409 0.1297173 1.187594 0 0.05366009 1.167214 0 0.4612492 0.4612492 0.4724409 0.5169269 0.5169269 0.4724409 0.5169269 0.5169269 0 0.4612492 0.4612492 0.4724409 0.2791746 0.8267717 0 0.2109836 0.7874016 0.4724409 0.2791746 0.8267717 0 0.2109836 0.7874016</float_array>
          <technique_common>
            <accessor source="#ID24-mesh-positions-array" count="96" stride="3">
              <param name="X" type="float"/>
              <param name="Y" type="float"/>
              <param name="Z" type="float"/>
            </accessor>
          </technique_common>
        </source>
        <source id="ID24-mesh-normals">
          <float_array id="ID24-mesh-normals-array" count="144">0.1643789 0.8542456 0.4931979 0.164377 0.6974885 0.6974885 -0.164377 -0.6974885 -0.6974885 -0.1643789 -0.8542456 -0.4931979 0.1643779 0.9527876 0.2552954 -0.1643779 -0.9527876 -0.2552954 0.1643789 0.4931979 0.8542456 -0.1643789 -0.4931979 -0.8542456 0.1643742 0.9863982 0 -0.1643742 -0.9863982 0 0.1643779 0.2552954 0.9527876 -0.1643779 -0.2552954 -0.9527876 0.1643779 0.9527876 -0.2552954 -0.1643779 -0.9527876 0.2552954 0.1643742 0 0.9863982 -0.1643742 0 -0.9863982 0.1643789 0.8542456 -0.4931979 -0.1643789 -0.8542456 0.4931979 0.1643779 -0.2552954 0.9527876 -0.1643779 0.2552954 -0.9527876 0.164377 0.6974885 -0.6974885 -0.164377 -0.6974885 0.6974885 0.1643789 -0.4931979 0.8542456 -0.1643789 0.4931979 -0.8542456 0.1643789 0.4931979 -0.8542456 -0.1643789 -0.4931979 0.8542456 0.164377 -0.6974885 0.6974885 -0.164377 0.6974885 -0.6974885 0.1643779 0.2552954 -0.9527876 -0.1643779 -0.2552954 0.9527876 0.1643789 -0.8542456 0.4931979 -0.1643789 0.8542456 -0.4931979 0.1643742 0 -0.9863982 -0.1643742 0 0.9863982 0.1643779 -0.9527876 0.2552954 -0.1643779 0.9527876 -0.2552954 0.1643779 -0.2552954 -0.9527876 -0.1643779 0.2552954 0.9527876 0.1643742 -0.9863982 0 -0.1643742 0.9863982 0 0.1643789 -0.4931979 -0.8542456 -0.1643789 0.4931979 0.8542456 0.1643779 -0.9527876 -0.2552954 -0.1643779 0.9527876 0.2552954 0.164377 -0.6974885 -0.6974885 -0.164377 0.6974885 0.6974885 0.1643789 -0.8542456 -0.4931979 -0.1643789 0.8542456 0.4931979</float_array>
          <technique_common>
            <accessor source="#ID24-mesh-normals-array" count="48" stride="3">
              <param name="X" type="float"/>
              <param name="Y" type="float"/>
              <param name="Z" type="float"/>
            </accessor>
          </technique_common>
        </source>
        <vertices id="ID24-mesh-vertices">
          <input semantic="POSITION" source="#ID24-mesh-positions"/>
        </vertices>
        <triangles material="Color_000_002-material" count="96">
          <input semantic="VERTEX" source="#ID24-mesh-vertices" offset="0"/>
          <input semantic="NORMAL" source="#ID24-mesh-normals" offset="1"/>
          <p>0 0 1 1 2 0 1 1 0 0 3 1 4 2 5 3 6 2 7 3 6 2 5 3 8 4 2 0 9 4 2 0 8 4 0 0 5 3 10 5 7 3 11 5 7 3 10 5 12 6 3 1 13 6 3 1 12 6 1 1 6 2 14 7 4 2 15 7 4 2 14 7 8 4 16 8 17 8 16 8 8 4 9 4 11 5 10 5 18 9 19 9 18 9 10 5 20 10 13 6 21 10 13 6 20 10 12 6 14 7 22 11 15 7 23 11 15 7 22 11 17 8 24 12 25 12 24 12 17 8 16 8 18 9 19 9 26 13 27 13 26 13 19 9 28 14 21 10 29 14 21 10 28 14 20 10 22 11 30 15 23 11 31 15 23 11 30 15 25 12 32 16 33 16 32 16 25 12 24 12 26 13 27 13 34 17 35 17 34 17 27 13 36 18 29 14 37 18 29 14 36 18 28 14 30 15 38 19 31 15 39 19 31 15 38 19 33 16 40 20 41 20 40 20 33 16 32 16 34 17 35 17 42 21 43 21 42 21 35 17 44 22 37 18 45 22 37 18 44 22 36 18 38 19 46 23 39 19 47 23 39 19 46 23 40 20 48 24 41 20 48 24 40 20 49 24 50 25 42 21 51 25 43 21 51 25 42 21 52 26 45 22 53 26 45 22 52 26 44 22 46 23 54 27 47 23 55 27 47 23 54 27 49 24 56 28 48 24 56 28 49 24 57 28 58 29 50 25 59 29 51 25 59 29 50 25 52 26 60 30 61 30 60 30 52 26 53 26 55 27 54 27 62 31 63 31 62 31 54 27 57 28 64 32 56 28 64 32 57 28 65 32 66 33 58 29 67 33 59 29 67 33 58 29 61 30 68 34 69 34 68 34 61 30 60 30 62 31 63 31 70 35 71 35 70 35 63 31 65 32 72 36 64 32 72 36 65 32 73 36 74 37 66 33 75 37 67 33 75 37 66 33 69 34 76 38 77 38 76 38 69 34 68 34 70 35 71 35 78 39 79 39 78 39 71 35 73 36 80 40 72 36 80 40 73 36 81 40 82 41 74 37 83 41 75 37 83 41 74 37 84 42 76 38 85 42 76 38 84 42 77 38 79 39 86 43 78 39 87 43 78 39 86 43 81 40 88 44 80 40 88 44 81 40 89 44 90 45 82 41 91 45 83 41 91 45 82 41 92 46 85 42 93 46 85 42 92 46 84 42 86 43 94 47 87 43 95 47 87 43 94 47 89 44 93 46 88 44 93 46 89 44 92 46 94 47 90 45 95 47 91 45 95 47 90 45</p>
        </triangles>
      </mesh>
    </geometry>
    <geometry id="ID30_001-mesh" name="ID30.001">
      <mesh>
        <source id="ID30_001-mesh-positions">
          <float_array id="ID30_001-mesh-positions-array" count="288">0.4724409 0.1297173 1.187594 0.4724409 0.1181102 1.574803 0.4724409 0.07874011 1.574803 0.4724409 0.1677458 1.197783 0.4724409 0.2791746 0.8267717 0.4724409 0.3132701 0.8464567 0.4724409 0.5169269 0.5169269 0.4724409 0.5447657 0.5447657 0.4724409 0.8267717 0.2791746 0.4724409 0.8464567 0.3132701 0.4724409 1.187594 0.1297173 0.4724409 1.197783 0.1677458 0.4724409 1.574803 0.07874011 0.4724409 1.574803 0.1181102 0.4724409 1.962013 0.1297173 0.4724409 1.951823 0.1677458 0.4724409 2.30315 0.3132701 0.4724409 2.322835 0.2791746 0.4724409 2.604841 0.5447657 0.4724409 2.632679 0.5169269 0.4724409 2.836336 0.8464567 0.4724409 2.870432 0.8267717 0.4724409 2.98186 1.197783 0.4724409 3.019889 1.187594 0.4724409 3.031496 1.574803 0.4724409 3.070866 1.574803 0.4724409 0.1297173 1.962013 0.4724409 0.1677458 1.951823 0.4724409 0.2791746 2.322835 0.4724409 0.3132701 2.30315 0.4724409 0.5169269 2.632679 0.4724409 0.5447657 2.604841 0.4724409 0.8267717 2.870432 0.4724409 0.8464567 2.836336 0.4724409 1.187594 3.019889 0.4724409 1.197783 2.98186 0.4724409 1.574803 3.070866 0.4724409 1.574803 3.031496 0.4724409 1.951823 2.98186 0.4724409 1.962013 3.019889 0.4724409 2.30315 2.836336 0.4724409 2.322835 2.870432 0.4724409 2.604841 2.604841 0.4724409 2.632679 2.632679 0.4724409 2.836336 2.30315 0.4724409 2.870432 2.322835 0.4724409 2.98186 1.951823 0.4724409 3.019889 1.962013 0.4724409 3.070866 1.574803 0.4724409 3.031496 1.574803 0.4724409 3.019889 1.962013 0.4724409 2.98186 1.951823 0.4724409 2.870432 2.322835 0.4724409 2.836336 2.30315 0.4724409 2.632679 2.632679 0.4724409 2.604841 2.604841 0.4724409 2.322835 2.870432 0.4724409 2.30315 2.836336 0.4724409 1.962013 3.019889 0.4724409 1.951823 2.98186 0.4724409 1.574803 3.070866 0.4724409 1.574803 3.031496 0.4724409 1.197783 2.98186 0.4724409 1.187594 3.019889 0.4724409 0.8464567 2.836336 0.4724409 0.8267717 2.870432 0.4724409 0.5447657 2.604841 0.4724409 0.5169269 2.632679 0.4724409 0.3132701 2.30315 0.4724409 0.2791746 2.322835 0.4724409 0.1677458 1.951823 0.4724409 0.1297173 1.962013 0.4724409 0.1181102 1.574803 0.4724409 0.07874011 1.574803 0.4724409 3.019889 1.187594 0.4724409 2.98186 1.197783 0.4724409 2.870432 0.8267717 0.4724409 2.836336 0.8464567 0.4724409 2.632679 0.5169269 0.4724409 2.604841 0.5447657 0.4724409 2.322835 0.2791746 0.4724409 2.30315 0.3132701 0.4724409 1.962013 0.1297173 0.4724409 1.951823 0.1677458 0.4724409 1.574803 0.1181102 0.4724409 1.574803 0.07874011 0.4724409 1.197783 0.1677458 0.4724409 1.187594 0.1297173 0.4724409 0.8464567 0.3132701 0.4724409 0.8267717 0.2791746 0.4724409 0.5447657 0.5447657 0.4724409 0.5169269 0.5169269 0.4724409 0.3132701 0.8464567 0.4724409 0.2791746 0.8267717 0.4724409 0.1677458 1.197783 0.4724409 0.1297173 1.187594</float_array>
          <technique_common>
            <accessor source="#ID30_001-mesh-positions-array" count="96" stride="3">
              <param name="X" type="float"/>
              <param name="Y" type="float"/>
              <param name="Z" type="float"/>
            </accessor>
          </technique_common>
        </source>
        <source id="ID30_001-mesh-normals">
          <float_array id="ID30_001-mesh-normals-array" count="135">1 0 0 1 0 0 1 -6.27437e-7 0 1 -1.95496e-6 0 1 -3.76461e-7 0 1 -9.77481e-7 0 1 5.01949e-7 0 1 2.50977e-7 0 1 -2.44372e-7 0 1 2.50975e-7 0 1 9.77494e-7 0 1 1.95493e-6 0 1 -1.00389e-6 0 1 9.77471e-7 0 1 -2.5098e-7 0 1 2.5098e-7 0 1 -2.44361e-7 0 1 -4.88734e-7 0 1 1.00388e-6 0 1 -4.88756e-7 0 1 -6.10924e-7 0 1 0 0 -1 0 0 -1 0 0 -1 -6.27426e-7 0 -1 5.01963e-7 0 -1 -5.01941e-7 0 -1 9.77464e-7 0 -1 -2.5098e-7 0 -1 -2.44365e-7 0 -1 -4.88738e-7 0 -1 -4.8875e-7 0 -1 -6.10931e-7 0 -1 0 0 -1 0 0 -1 -6.27429e-7 0 -1 -1.95493e-6 0 -1 -3.76468e-7 0 -1 5.01949e-7 0 -1 2.50974e-7 0 -1 2.44372e-7 0 -1 4.88739e-7 0 -1 6.10925e-7 0 -1 1.34404e-6 0 -1 0 0</float_array>
          <technique_common>
            <accessor source="#ID30_001-mesh-normals-array" count="45" stride="3">
              <param name="X" type="float"/>
              <param name="Y" type="float"/>
              <param name="Z" type="float"/>
            </accessor>
          </technique_common>
        </source>
        <vertices id="ID30_001-mesh-vertices">
          <input semantic="POSITION" source="#ID30_001-mesh-positions"/>
        </vertices>
        <triangles material="Color_000_002-material" count="96">
          <input semantic="VERTEX" source="#ID30_001-mesh-vertices" offset="0"/>
          <input semantic="NORMAL" source="#ID30_001-mesh-normals" offset="1"/>
          <p>0 0 1 0 2 0 1 1 0 1 3 1 3 0 0 0 4 0 3 2 4 2 5 2 5 3 4 3 6 3 5 4 6 4 7 4 7 5 6 5 8 5 7 6 8 6 9 6 9 0 8 0 10 0 9 7 10 7 11 7 11 8 10 8 12 8 11 9 12 9 13 9 13 0 12 0 14 0 13 0 14 0 15 0 15 0 14 0 16 0 16 0 14 0 17 0 16 0 17 0 18 0 18 10 17 10 19 10 18 0 19 0 20 0 20 11 19 11 21 11 20 0 21 0 22 0 22 0 21 0 23 0 22 0 23 0 24 0 24 0 23 0 25 0 1 0 26 0 2 0 26 0 1 0 27 0 26 0 27 0 28 0 28 0 27 0 29 0 28 0 29 0 30 0 30 0 29 0 31 0 30 0 31 0 32 0 32 12 31 12 33 12 32 13 33 13 34 13 34 0 33 0 35 0 34 0 35 0 36 0 36 14 35 14 37 14 36 15 37 15 38 15 36 16 38 16 39 16 39 0 38 0 40 0 39 17 40 17 41 17 41 18 40 18 42 18 41 19 42 19 43 19 43 0 42 0 44 0 43 20 44 20 45 20 45 0 44 0 46 0 45 21 46 21 47 21 47 0 46 0 24 0 47 0 24 0 25 0 48 22 49 22 50 22 49 23 51 23 50 23 50 22 51 22 52 22 51 24 53 24 52 24 52 22 53 22 54 22 53 25 55 25 54 25 54 22 55 22 56 22 55 26 57 26 56 26 56 27 57 27 58 27 57 22 59 22 58 22 58 22 59 22 60 22 59 28 61 28 60 28 61 22 62 22 60 22 60 29 62 29 63 29 62 22 64 22 63 22 63 30 64 30 65 30 64 22 66 22 65 22 65 31 66 31 67 31 66 22 68 22 67 22 67 32 68 32 69 32 68 22 70 22 69 22 69 33 70 33 71 33 70 22 72 22 71 22 73 22 71 22 72 22 48 22 74 22 49 22 49 34 74 34 75 34 74 22 76 22 75 22 75 35 76 35 77 35 76 36 78 36 77 36 77 37 78 37 79 37 78 22 80 22 79 22 79 38 80 38 81 38 80 22 82 22 81 22 81 39 82 39 83 39 83 22 82 22 84 22 82 22 85 22 84 22 84 22 85 22 86 22 85 40 87 40 86 40 86 22 87 22 88 22 87 41 89 41 88 41 88 22 89 22 90 22 89 42 91 42 90 42 90 22 91 22 92 22 91 43 93 43 92 43 92 22 93 22 94 22 93 44 95 44 94 44 94 22 95 22 72 22 73 22 72 22 95 22</p>
        </triangles>
      </mesh>
    </geometry>
    <geometry id="ID36-mesh" name="ID36">
      <mesh>
        <source id="ID36-mesh-positions">
          <float_array id="ID36-mesh-positions-array" count="288">0 0.05366009 1.982392 0 0.05366009 1.167214 0 0 1.574803 0 0.05956465 1.574803 0 0.1111952 1.966976 0 0.2109836 2.362205 0 0.2625682 2.332422 0 0.4612492 2.688357 0 0.5033678 2.646239 0 0.7874016 2.938623 0 0.8171839 2.887038 0 1.167214 3.095946 0 1.182631 3.038411 0 1.574803 3.149606 0 1.574803 3.090042 0 1.966976 3.038411 0 1.982392 3.095946 0 2.332422 2.887038 0 2.362205 2.938623 0 2.646239 2.646239 0 2.688357 2.688357 0 2.887038 2.332422 0 2.938623 2.362205 0 3.038411 1.966976 0 3.095946 1.982392 0 3.090042 1.574803 0 0.1111952 1.182631 0 0.2109836 0.7874016 0 0.2625682 0.8171839 0 0.4612492 0.4612492 0 0.5033678 0.5033678 0 0.7874016 0.2109836 0 0.8171839 0.2625682 0 1.167214 0.05366009 0 1.182631 0.1111952 0 1.574803 0 0 1.574803 0.05956465 0 1.982392 0.05366009 0 1.966976 0.1111952 0 2.332422 0.2625682 0 2.362205 0.2109836 0 2.646239 0.5033678 0 2.688357 0.4612492 0 2.887038 0.8171839 0 2.938623 0.7874016 0 3.038411 1.182631 0 3.095946 1.167214 0 3.149606 1.574803 0 3.149606 1.574803 0 3.095946 1.982392 0 3.095946 1.167214 0 3.090042 1.574803 0 3.038411 1.182631 0 2.938623 0.7874016 0 2.887038 0.8171839 0 2.688357 0.4612492 0 2.646239 0.5033678 0 2.362205 0.2109836 0 2.332422 0.2625682 0 1.982392 0.05366009 0 1.966976 0.1111952 0 1.574803 0.05956465 0 1.574803 0 0 1.182631 0.1111952 0 1.167214 0.05366009 0 0.8171839 0.2625682 0 0.7874016 0.2109836 0 0.5033678 0.5033678 0 0.4612492 0.4612492 0 0.2625682 0.8171839 0 0.2109836 0.7874016 0 0.1111952 1.182631 0 0.05956465 1.574803 0 0.05366009 1.167214 0 3.038411 1.966976 0 2.938623 2.362205 0 2.887038 2.332422 0 2.688357 2.688357 0 2.646239 2.646239 0 2.362205 2.938623 0 2.332422 2.887038 0 1.982392 3.095946 0 1.966976 3.038411 0 1.574803 3.149606 0 1.574803 3.090042 0 1.182631 3.038411 0 1.167214 3.095946 0 0.8171839 2.887038 0 0.7874016 2.938623 0 0.5033678 2.646239 0 0.4612492 2.688357 0 0.2625682 2.332422 0 0.2109836 2.362205 0 0.1111952 1.966976 0 0.05366009 1.982392 0 0 1.574803</float_array>
          <technique_common>
            <accessor source="#ID36-mesh-positions-array" count="96" stride="3">
              <param name="X" type="float"/>
              <param name="Y" type="float"/>
              <param name="Z" type="float"/>
            </accessor>
          </technique_common>
        </source>
        <source id="ID36-mesh-normals">
          <float_array id="ID36-mesh-normals-array" count="6">-1 0 0 1 0 0</float_array>
          <technique_common>
            <accessor source="#ID36-mesh-normals-array" count="2" stride="3">
              <param name="X" type="float"/>
              <param name="Y" type="float"/>
              <param name="Z" type="float"/>
            </accessor>
          </technique_common>
        </source>
        <vertices id="ID36-mesh-vertices">
          <input semantic="POSITION" source="#ID36-mesh-positions"/>
        </vertices>
        <triangles material="Color_000_002-material" count="96">
          <input semantic="VERTEX" source="#ID36-mesh-vertices" offset="0"/>
          <input semantic="NORMAL" source="#ID36-mesh-normals" offset="1"/>
          <p>0 0 1 0 2 0 1 0 0 0 3 0 3 0 0 0 4 0 4 0 0 0 5 0 4 0 5 0 6 0 6 0 5 0 7 0 6 0 7 0 8 0 8 0 7 0 9 0 8 0 9 0 10 0 10 0 9 0 11 0 10 0 11 0 12 0 12 0 11 0 13 0 12 0 13 0 14 0 14 0 13 0 15 0 15 0 13 0 16 0 15 0 16 0 17 0 17 0 16 0 18 0 17 0 18 0 19 0 19 0 18 0 20 0 19 0 20 0 21 0 21 0 20 0 22 0 21 0 22 0 23 0 23 0 22 0 24 0 23 0 24 0 25 0 1 0 26 0 27 0 26 0 1 0 3 0 27 0 26 0 28 0 27 0 28 0 29 0 29 0 28 0 30 0 29 0 30 0 31 0 31 0 30 0 32 0 31 0 32 0 33 0 33 0 32 0 34 0 33 0 34 0 35 0 35 0 34 0 36 0 35 0 36 0 37 0 37 0 36 0 38 0 37 0 38 0 39 0 37 0 39 0 40 0 40 0 39 0 41 0 40 0 41 0 42 0 42 0 41 0 43 0 42 0 43 0 44 0 44 0 43 0 45 0 44 0 45 0 46 0 46 0 45 0 25 0 46 0 25 0 24 0 46 0 24 0 47 0 48 1 49 1 50 1 49 1 51 1 50 1 51 1 52 1 50 1 50 1 52 1 53 1 52 1 54 1 53 1 53 1 54 1 55 1 54 1 56 1 55 1 55 1 56 1 57 1 56 1 58 1 57 1 57 1 58 1 59 1 58 1 60 1 59 1 60 1 61 1 59 1 59 1 61 1 62 1 61 1 63 1 62 1 62 1 63 1 64 1 63 1 65 1 64 1 64 1 65 1 66 1 65 1 67 1 66 1 66 1 67 1 68 1 67 1 69 1 68 1 68 1 69 1 70 1 69 1 71 1 70 1 72 1 73 1 71 1 70 1 71 1 73 1 51 1 49 1 74 1 49 1 75 1 74 1 74 1 75 1 76 1 75 1 77 1 76 1 76 1 77 1 78 1 77 1 79 1 78 1 78 1 79 1 80 1 79 1 81 1 80 1 80 1 81 1 82 1 81 1 83 1 82 1 82 1 83 1 84 1 84 1 83 1 85 1 83 1 86 1 85 1 85 1 86 1 87 1 86 1 88 1 87 1 87 1 88 1 89 1 88 1 90 1 89 1 89 1 90 1 91 1 90 1 92 1 91 1 91 1 92 1 93 1 92 1 94 1 93 1 93 1 94 1 72 1 72 1 94 1 73 1 95 1 73 1 94 1</p>
        </triangles>
      </mesh>
    </geometry>
  </library_geometries>
  <library_controllers/>
  <library_visual_scenes>
    <visual_scene id="Scene" name="Scene">
      <node id="Camera" name="Camera" type="NODE">
        <matrix sid="transform">0.6859207 -0.3240135 0.6515582 7.481132 0.7276763 0.3054208 -0.6141704 -6.50764 0 0.8953956 0.4452714 5.343665 0 0 0 1</matrix>
        <instance_camera url="#Camera-camera"/>
      </node>
      <node id="Lamp" name="Lamp" type="NODE">
        <matrix sid="transform">-0.001404686 -0.003723914 0.002735309 -0.007060766 0.004612853 -9.65306e-4 0.001054687 -0.243829 -2.66527e-4 0.00291946 0.003837748 -0.05965713 0 0 0 1</matrix>
        <instance_light url="#Lamp-light"/>
      </node>
      <node id="Camera_001" name="Camera_001" type="NODE">
        <matrix sid="transform">0.6859207 -0.3240134 0.6515582 7.481132 0.7276763 0.3054208 -0.6141704 -6.50764 -4.01133e-9 0.8953956 0.4452714 5.343665 0 0 0 1</matrix>
        <instance_camera url="#Camera_001-camera"/>
      </node>
      <node id="Lamp_001" name="Lamp_001" type="NODE">
        <matrix sid="transform">-0.2908646 -0.7711008 0.5663933 4.076245 0.9551712 -0.1998833 0.2183912 1.005454 -0.05518906 0.6045247 0.7946723 5.903862 0 0 0 1</matrix>
        <instance_light url="#Lamp_001-light"/>
      </node>
      <node id="SketchUp" name="SketchUp" type="NODE">
        <matrix sid="transform">0.0254 0 0 0 0 0.0254 0 -0.04297361 0 0 0.0254 -0.02515478 0 0 0 1</matrix>
        <node id="skp_camera_Last_Saved_SketchUp_View" name="skp_camera_Last_Saved_SketchUp_View" type="NODE">
          <matrix sid="transform">0.2784952 0.3285044 -0.9025105 -6.678782 -0.9604377 0.0952554 -0.2616983 -0.2604914 -5.44554e-8 0.9396867 0.3420361 4.265444 0 0 0 1</matrix>
          <instance_camera url="#skp_camera_Last_Saved_SketchUp_View-camera"/>
        </node>
        <node id="group_0" name="group_0" type="NODE">
          <matrix sid="transform">7.54979e-8 0 1 -1.590551 0 1 0 0.1431959 -1 0 7.54979e-8 3.622047 0 0 0 1</matrix>
          <instance_geometry url="#ID4_003-mesh" name="group_0">
            <bind_material>
              <technique_common>
                <instance_material symbol="Color_000_002-material" target="#Color_000_002-material"/>
              </technique_common>
            </bind_material>
          </instance_geometry>
        </node>
        <node id="group_0_001" name="group_0_001" type="NODE">
          <matrix sid="transform">7.54979e-8 0 1 -1.590551 0 1 0 0.1431959 -1 0 7.54979e-8 3.622047 0 0 0 1</matrix>
          <instance_geometry url="#ID12_001-mesh" name="group_0_001">
            <bind_material>
              <technique_common>
                <instance_material symbol="Color_000_002-material" target="#Color_000_002-material"/>
              </technique_common>
            </bind_material>
          </instance_geometry>
        </node>
        <node id="group_0_002" name="group_0_002" type="NODE">
          <matrix sid="transform">7.54979e-8 0 1 -1.590551 0 1 0 0.1431959 -1 0 7.54979e-8 3.622047 0 0 0 1</matrix>
          <instance_geometry url="#ID18_001-mesh" name="group_0_002">
            <bind_material>
              <technique_common>
                <instance_material symbol="Color_000_002-material" target="#Color_000_002-material"/>
              </technique_common>
            </bind_material>
          </instance_geometry>
        </node>
        <node id="group_0_003" name="group_0_003" type="NODE">
          <matrix sid="transform">7.54979e-8 0 1 -1.590551 0 1 0 0.1431959 -1 0 7.54979e-8 3.622047 0 0 0 1</matrix>
          <instance_geometry url="#ID24-mesh" name="group_0_003">
            <bind_material>
              <technique_common>
                <instance_material symbol="Color_000_002-material" target="#Color_000_002-material"/>
              </technique_common>
            </bind_material>
          </instance_geometry>
        </node>
        <node id="group_0_004" name="group_0_004" type="NODE">
          <matrix sid="transform">7.54979e-8 0 1 -1.590551 0 1 0 0.1431959 -1 0 7.54979e-8 3.622047 0 0 0 1</matrix>
          <instance_geometry url="#ID30_001-mesh" name="group_0_004">
            <bind_material>
              <technique_common>
                <instance_material symbol="Color_000_002-material" target="#Color_000_002-material"/>
              </technique_common>
            </bind_material>
          </instance_geometry>
        </node>
        <node id="group_0_005" name="group_0_005" type="NODE">
          <matrix sid="transform">7.54979e-8 0 1 -1.590551 0 1 0 0.1431959 -1 0 7.54979e-8 3.622047 0 0 0 1</matrix>
          <instance_geometry url="#ID36-mesh" name="group_0_005">
            <bind_material>
              <technique_common>
                <instance_material symbol="Color_000_002-material" target="#Color_000_002-material"/>
              </technique_common>
            </bind_material>
          </instance_geometry>
        </node>
      </node>
    </visual_scene>
  </library_visual_scenes>
  <scene>
    <instance_visual_scene url="#Scene"/>
  </scene>
</COLLADA>
